{"componentChunkName":"component---packages-blog-gatsby-blog-core-src-templates-collection-tag-js","path":"/tag/algorithm/page/3/","result":{"data":{"collectionInfo":{"id":"6b7bc66e-aa90-508b-a90d-afb98074ceda","name":"#algorithm","slug":"/tag/algorithm/"},"posts":{"nodes":[{"id":"5b2c663e-4f81-54fc-934f-b984e3b78734","title":"BOJ 1863 스카이라인 쉬운거","slug":"/boj1863/","link":null,"excerpt":"문제 BOJ 1863 스카이라인 쉬운거 바로 가기 도시에서 태양이 질 때에 보이는 건물들의 윤곽을 스카이라…","timeToRead":1,"featured":null,"thumbnailText":null,"date":"2023-05-25","category":{"id":"c7ace9fe-24dc-553e-9965-3777c47ebf98","name":"알고리즘","slug":"/category/algorithm/","color":"#EB6528","icon":"/static/12873adb9b5cd66ab1c15b91c54ccf98/algorithm.svg"},"author":{"id":"5e2411c8-feba-5892-8846-7e896da316b3","name":"kuper0201","slug":"/author/kuper0201/","title":"안녕하세요!","description":"컴퓨터 공학을 전공하고 있는 학생입니다.","skills":["Java","C++","Linux","MacOS","Android","IOS"],"social":[{"name":"Github","url":"https://github.com/github"}],"thumbnail":{"__typename":"ImageSharp","ImageSharp_small":{"layout":"fixed","placeholder":{"fallback":"data:image/svg+xml,%3csvg%20xmlns='http://www.w3.org/2000/svg'%20width='48'%20height='48'%20viewBox='0%200%2048%2048'%20preserveAspectRatio='none'%3e%3cpath%20d='M17%208c-4%203-6%206-6%2012l1%205%201%202c1%202%201%202%202%200%202-3%203-4%203-1h3c1-2%201-2%201%200h4c0-2%200-2%201-1%200%202%203%201%203-1s2%200%202%202%200%202%201%201l1-2v2c0%203%203-3%203-7C37%2010%2026%203%2017%208'%20fill='%23d3d3d3'%20fill-rule='evenodd'/%3e%3c/svg%3e"},"images":{"fallback":{"src":"/static/fecf2e899dec54bbe574abf34532a6ae/a7a66/kuper0201.png","srcSet":"/static/fecf2e899dec54bbe574abf34532a6ae/a7a66/kuper0201.png 48w,\n/static/fecf2e899dec54bbe574abf34532a6ae/416a0/kuper0201.png 96w","sizes":"48px"},"sources":[{"srcSet":"/static/fecf2e899dec54bbe574abf34532a6ae/a3542/kuper0201.webp 48w,\n/static/fecf2e899dec54bbe574abf34532a6ae/0f66d/kuper0201.webp 96w","type":"image/webp","sizes":"48px"}]},"width":48,"height":48},"ImageSharp_regular":{"layout":"fixed","placeholder":{"fallback":"data:image/svg+xml,%3csvg%20xmlns='http://www.w3.org/2000/svg'%20width='48'%20height='48'%20viewBox='0%200%2048%2048'%20preserveAspectRatio='none'%3e%3cpath%20d='M17%208c-4%203-6%206-6%2012l1%205%201%202c1%202%201%202%202%200%202-3%203-4%203-1h3c1-2%201-2%201%200h4c0-2%200-2%201-1%200%202%203%201%203-1s2%200%202%202%200%202%201%201l1-2v2c0%203%203-3%203-7C37%2010%2026%203%2017%208'%20fill='%23d3d3d3'%20fill-rule='evenodd'/%3e%3c/svg%3e"},"images":{"fallback":{"src":"/static/fecf2e899dec54bbe574abf34532a6ae/46e60/kuper0201.png","srcSet":"/static/fecf2e899dec54bbe574abf34532a6ae/46e60/kuper0201.png 150w,\n/static/fecf2e899dec54bbe574abf34532a6ae/d612b/kuper0201.png 300w","sizes":"150px"},"sources":[{"srcSet":"/static/fecf2e899dec54bbe574abf34532a6ae/ae23d/kuper0201.webp 150w,\n/static/fecf2e899dec54bbe574abf34532a6ae/bd37b/kuper0201.webp 300w","type":"image/webp","sizes":"150px"}]},"width":150,"height":150}}},"thumbnail":{"__typename":"ImageSharp","ImageSharp_vertical":{"layout":"constrained","backgroundColor":"#e8e8e8","images":{"fallback":{"src":"/static/1ae1a39bac2844ea72c7af0c528da5d1/144fe/cover.jpg","srcSet":"/static/1ae1a39bac2844ea72c7af0c528da5d1/9d7b9/cover.jpg 190w,\n/static/1ae1a39bac2844ea72c7af0c528da5d1/144fe/cover.jpg 380w","sizes":"(min-width: 380px) 380px, 100vw"},"sources":[{"srcSet":"/static/1ae1a39bac2844ea72c7af0c528da5d1/228d6/cover.webp 190w,\n/static/1ae1a39bac2844ea72c7af0c528da5d1/6b99c/cover.webp 380w","type":"image/webp","sizes":"(min-width: 380px) 380px, 100vw"}]},"width":380,"height":290},"ImageSharp_hero":{"layout":"constrained","backgroundColor":"#e8e8e8","images":{"fallback":{"src":"/static/1ae1a39bac2844ea72c7af0c528da5d1/5e493/cover.jpg","srcSet":"/static/1ae1a39bac2844ea72c7af0c528da5d1/696c0/cover.jpg 800w,\n/static/1ae1a39bac2844ea72c7af0c528da5d1/5e493/cover.jpg 1600w","sizes":"(min-width: 1600px) 1600px, 100vw"},"sources":[{"srcSet":"/static/1ae1a39bac2844ea72c7af0c528da5d1/c9f06/cover.webp 800w,\n/static/1ae1a39bac2844ea72c7af0c528da5d1/f47df/cover.webp 1600w","type":"image/webp","sizes":"(min-width: 1600px) 1600px, 100vw"}]},"width":1600,"height":650}}},{"id":"2c489a9c-b3fb-5fe1-a80d-1c1486c9828d","title":"BOJ 18883 N M 찍기","slug":"/boj18883/","link":null,"excerpt":"문제 BOJ 18883 N M 찍기 바로 가기 자연수 N, M이 주어졌을 때, 1부터 N×M까지 출력 형식…","timeToRead":1,"featured":null,"thumbnailText":null,"date":"2023-05-25","category":{"id":"c7ace9fe-24dc-553e-9965-3777c47ebf98","name":"알고리즘","slug":"/category/algorithm/","color":"#EB6528","icon":"/static/12873adb9b5cd66ab1c15b91c54ccf98/algorithm.svg"},"author":{"id":"5e2411c8-feba-5892-8846-7e896da316b3","name":"kuper0201","slug":"/author/kuper0201/","title":"안녕하세요!","description":"컴퓨터 공학을 전공하고 있는 학생입니다.","skills":["Java","C++","Linux","MacOS","Android","IOS"],"social":[{"name":"Github","url":"https://github.com/github"}],"thumbnail":{"__typename":"ImageSharp","ImageSharp_small":{"layout":"fixed","placeholder":{"fallback":"data:image/svg+xml,%3csvg%20xmlns='http://www.w3.org/2000/svg'%20width='48'%20height='48'%20viewBox='0%200%2048%2048'%20preserveAspectRatio='none'%3e%3cpath%20d='M17%208c-4%203-6%206-6%2012l1%205%201%202c1%202%201%202%202%200%202-3%203-4%203-1h3c1-2%201-2%201%200h4c0-2%200-2%201-1%200%202%203%201%203-1s2%200%202%202%200%202%201%201l1-2v2c0%203%203-3%203-7C37%2010%2026%203%2017%208'%20fill='%23d3d3d3'%20fill-rule='evenodd'/%3e%3c/svg%3e"},"images":{"fallback":{"src":"/static/fecf2e899dec54bbe574abf34532a6ae/a7a66/kuper0201.png","srcSet":"/static/fecf2e899dec54bbe574abf34532a6ae/a7a66/kuper0201.png 48w,\n/static/fecf2e899dec54bbe574abf34532a6ae/416a0/kuper0201.png 96w","sizes":"48px"},"sources":[{"srcSet":"/static/fecf2e899dec54bbe574abf34532a6ae/a3542/kuper0201.webp 48w,\n/static/fecf2e899dec54bbe574abf34532a6ae/0f66d/kuper0201.webp 96w","type":"image/webp","sizes":"48px"}]},"width":48,"height":48},"ImageSharp_regular":{"layout":"fixed","placeholder":{"fallback":"data:image/svg+xml,%3csvg%20xmlns='http://www.w3.org/2000/svg'%20width='48'%20height='48'%20viewBox='0%200%2048%2048'%20preserveAspectRatio='none'%3e%3cpath%20d='M17%208c-4%203-6%206-6%2012l1%205%201%202c1%202%201%202%202%200%202-3%203-4%203-1h3c1-2%201-2%201%200h4c0-2%200-2%201-1%200%202%203%201%203-1s2%200%202%202%200%202%201%201l1-2v2c0%203%203-3%203-7C37%2010%2026%203%2017%208'%20fill='%23d3d3d3'%20fill-rule='evenodd'/%3e%3c/svg%3e"},"images":{"fallback":{"src":"/static/fecf2e899dec54bbe574abf34532a6ae/46e60/kuper0201.png","srcSet":"/static/fecf2e899dec54bbe574abf34532a6ae/46e60/kuper0201.png 150w,\n/static/fecf2e899dec54bbe574abf34532a6ae/d612b/kuper0201.png 300w","sizes":"150px"},"sources":[{"srcSet":"/static/fecf2e899dec54bbe574abf34532a6ae/ae23d/kuper0201.webp 150w,\n/static/fecf2e899dec54bbe574abf34532a6ae/bd37b/kuper0201.webp 300w","type":"image/webp","sizes":"150px"}]},"width":150,"height":150}}},"thumbnail":{"__typename":"ImageSharp","ImageSharp_vertical":{"layout":"constrained","backgroundColor":"#e8e8e8","images":{"fallback":{"src":"/static/1ae1a39bac2844ea72c7af0c528da5d1/144fe/cover.jpg","srcSet":"/static/1ae1a39bac2844ea72c7af0c528da5d1/9d7b9/cover.jpg 190w,\n/static/1ae1a39bac2844ea72c7af0c528da5d1/144fe/cover.jpg 380w","sizes":"(min-width: 380px) 380px, 100vw"},"sources":[{"srcSet":"/static/1ae1a39bac2844ea72c7af0c528da5d1/228d6/cover.webp 190w,\n/static/1ae1a39bac2844ea72c7af0c528da5d1/6b99c/cover.webp 380w","type":"image/webp","sizes":"(min-width: 380px) 380px, 100vw"}]},"width":380,"height":290},"ImageSharp_hero":{"layout":"constrained","backgroundColor":"#e8e8e8","images":{"fallback":{"src":"/static/1ae1a39bac2844ea72c7af0c528da5d1/5e493/cover.jpg","srcSet":"/static/1ae1a39bac2844ea72c7af0c528da5d1/696c0/cover.jpg 800w,\n/static/1ae1a39bac2844ea72c7af0c528da5d1/5e493/cover.jpg 1600w","sizes":"(min-width: 1600px) 1600px, 100vw"},"sources":[{"srcSet":"/static/1ae1a39bac2844ea72c7af0c528da5d1/c9f06/cover.webp 800w,\n/static/1ae1a39bac2844ea72c7af0c528da5d1/f47df/cover.webp 1600w","type":"image/webp","sizes":"(min-width: 1600px) 1600px, 100vw"}]},"width":1600,"height":650}}},{"id":"c0693d95-0c8f-5308-8e2b-737800375b92","title":"BOJ 1929 소수 구하기","slug":"/boj1929/","link":null,"excerpt":"문제 BOJ 1929 소수 구하기 바로 가기 M이상 N이하의 소수를 모두 출력하는 프로그램을 작성하시오. …","timeToRead":1,"featured":null,"thumbnailText":null,"date":"2023-05-25","category":{"id":"c7ace9fe-24dc-553e-9965-3777c47ebf98","name":"알고리즘","slug":"/category/algorithm/","color":"#EB6528","icon":"/static/12873adb9b5cd66ab1c15b91c54ccf98/algorithm.svg"},"author":{"id":"5e2411c8-feba-5892-8846-7e896da316b3","name":"kuper0201","slug":"/author/kuper0201/","title":"안녕하세요!","description":"컴퓨터 공학을 전공하고 있는 학생입니다.","skills":["Java","C++","Linux","MacOS","Android","IOS"],"social":[{"name":"Github","url":"https://github.com/github"}],"thumbnail":{"__typename":"ImageSharp","ImageSharp_small":{"layout":"fixed","placeholder":{"fallback":"data:image/svg+xml,%3csvg%20xmlns='http://www.w3.org/2000/svg'%20width='48'%20height='48'%20viewBox='0%200%2048%2048'%20preserveAspectRatio='none'%3e%3cpath%20d='M17%208c-4%203-6%206-6%2012l1%205%201%202c1%202%201%202%202%200%202-3%203-4%203-1h3c1-2%201-2%201%200h4c0-2%200-2%201-1%200%202%203%201%203-1s2%200%202%202%200%202%201%201l1-2v2c0%203%203-3%203-7C37%2010%2026%203%2017%208'%20fill='%23d3d3d3'%20fill-rule='evenodd'/%3e%3c/svg%3e"},"images":{"fallback":{"src":"/static/fecf2e899dec54bbe574abf34532a6ae/a7a66/kuper0201.png","srcSet":"/static/fecf2e899dec54bbe574abf34532a6ae/a7a66/kuper0201.png 48w,\n/static/fecf2e899dec54bbe574abf34532a6ae/416a0/kuper0201.png 96w","sizes":"48px"},"sources":[{"srcSet":"/static/fecf2e899dec54bbe574abf34532a6ae/a3542/kuper0201.webp 48w,\n/static/fecf2e899dec54bbe574abf34532a6ae/0f66d/kuper0201.webp 96w","type":"image/webp","sizes":"48px"}]},"width":48,"height":48},"ImageSharp_regular":{"layout":"fixed","placeholder":{"fallback":"data:image/svg+xml,%3csvg%20xmlns='http://www.w3.org/2000/svg'%20width='48'%20height='48'%20viewBox='0%200%2048%2048'%20preserveAspectRatio='none'%3e%3cpath%20d='M17%208c-4%203-6%206-6%2012l1%205%201%202c1%202%201%202%202%200%202-3%203-4%203-1h3c1-2%201-2%201%200h4c0-2%200-2%201-1%200%202%203%201%203-1s2%200%202%202%200%202%201%201l1-2v2c0%203%203-3%203-7C37%2010%2026%203%2017%208'%20fill='%23d3d3d3'%20fill-rule='evenodd'/%3e%3c/svg%3e"},"images":{"fallback":{"src":"/static/fecf2e899dec54bbe574abf34532a6ae/46e60/kuper0201.png","srcSet":"/static/fecf2e899dec54bbe574abf34532a6ae/46e60/kuper0201.png 150w,\n/static/fecf2e899dec54bbe574abf34532a6ae/d612b/kuper0201.png 300w","sizes":"150px"},"sources":[{"srcSet":"/static/fecf2e899dec54bbe574abf34532a6ae/ae23d/kuper0201.webp 150w,\n/static/fecf2e899dec54bbe574abf34532a6ae/bd37b/kuper0201.webp 300w","type":"image/webp","sizes":"150px"}]},"width":150,"height":150}}},"thumbnail":{"__typename":"ImageSharp","ImageSharp_vertical":{"layout":"constrained","backgroundColor":"#e8e8e8","images":{"fallback":{"src":"/static/1ae1a39bac2844ea72c7af0c528da5d1/144fe/cover.jpg","srcSet":"/static/1ae1a39bac2844ea72c7af0c528da5d1/9d7b9/cover.jpg 190w,\n/static/1ae1a39bac2844ea72c7af0c528da5d1/144fe/cover.jpg 380w","sizes":"(min-width: 380px) 380px, 100vw"},"sources":[{"srcSet":"/static/1ae1a39bac2844ea72c7af0c528da5d1/228d6/cover.webp 190w,\n/static/1ae1a39bac2844ea72c7af0c528da5d1/6b99c/cover.webp 380w","type":"image/webp","sizes":"(min-width: 380px) 380px, 100vw"}]},"width":380,"height":290},"ImageSharp_hero":{"layout":"constrained","backgroundColor":"#e8e8e8","images":{"fallback":{"src":"/static/1ae1a39bac2844ea72c7af0c528da5d1/5e493/cover.jpg","srcSet":"/static/1ae1a39bac2844ea72c7af0c528da5d1/696c0/cover.jpg 800w,\n/static/1ae1a39bac2844ea72c7af0c528da5d1/5e493/cover.jpg 1600w","sizes":"(min-width: 1600px) 1600px, 100vw"},"sources":[{"srcSet":"/static/1ae1a39bac2844ea72c7af0c528da5d1/c9f06/cover.webp 800w,\n/static/1ae1a39bac2844ea72c7af0c528da5d1/f47df/cover.webp 1600w","type":"image/webp","sizes":"(min-width: 1600px) 1600px, 100vw"}]},"width":1600,"height":650}}},{"id":"7f8af1cf-4685-597b-aed1-e49470bee735","title":"BOJ 1920 수 찾기","slug":"/boj1920/","link":null,"excerpt":"문제 BOJ 1920 수 찾기 바로 가기 N개의 정수 A 1 , A 2 , …, A N 이 주어져 있을 때…","timeToRead":1,"featured":null,"thumbnailText":null,"date":"2023-05-25","category":{"id":"c7ace9fe-24dc-553e-9965-3777c47ebf98","name":"알고리즘","slug":"/category/algorithm/","color":"#EB6528","icon":"/static/12873adb9b5cd66ab1c15b91c54ccf98/algorithm.svg"},"author":{"id":"5e2411c8-feba-5892-8846-7e896da316b3","name":"kuper0201","slug":"/author/kuper0201/","title":"안녕하세요!","description":"컴퓨터 공학을 전공하고 있는 학생입니다.","skills":["Java","C++","Linux","MacOS","Android","IOS"],"social":[{"name":"Github","url":"https://github.com/github"}],"thumbnail":{"__typename":"ImageSharp","ImageSharp_small":{"layout":"fixed","placeholder":{"fallback":"data:image/svg+xml,%3csvg%20xmlns='http://www.w3.org/2000/svg'%20width='48'%20height='48'%20viewBox='0%200%2048%2048'%20preserveAspectRatio='none'%3e%3cpath%20d='M17%208c-4%203-6%206-6%2012l1%205%201%202c1%202%201%202%202%200%202-3%203-4%203-1h3c1-2%201-2%201%200h4c0-2%200-2%201-1%200%202%203%201%203-1s2%200%202%202%200%202%201%201l1-2v2c0%203%203-3%203-7C37%2010%2026%203%2017%208'%20fill='%23d3d3d3'%20fill-rule='evenodd'/%3e%3c/svg%3e"},"images":{"fallback":{"src":"/static/fecf2e899dec54bbe574abf34532a6ae/a7a66/kuper0201.png","srcSet":"/static/fecf2e899dec54bbe574abf34532a6ae/a7a66/kuper0201.png 48w,\n/static/fecf2e899dec54bbe574abf34532a6ae/416a0/kuper0201.png 96w","sizes":"48px"},"sources":[{"srcSet":"/static/fecf2e899dec54bbe574abf34532a6ae/a3542/kuper0201.webp 48w,\n/static/fecf2e899dec54bbe574abf34532a6ae/0f66d/kuper0201.webp 96w","type":"image/webp","sizes":"48px"}]},"width":48,"height":48},"ImageSharp_regular":{"layout":"fixed","placeholder":{"fallback":"data:image/svg+xml,%3csvg%20xmlns='http://www.w3.org/2000/svg'%20width='48'%20height='48'%20viewBox='0%200%2048%2048'%20preserveAspectRatio='none'%3e%3cpath%20d='M17%208c-4%203-6%206-6%2012l1%205%201%202c1%202%201%202%202%200%202-3%203-4%203-1h3c1-2%201-2%201%200h4c0-2%200-2%201-1%200%202%203%201%203-1s2%200%202%202%200%202%201%201l1-2v2c0%203%203-3%203-7C37%2010%2026%203%2017%208'%20fill='%23d3d3d3'%20fill-rule='evenodd'/%3e%3c/svg%3e"},"images":{"fallback":{"src":"/static/fecf2e899dec54bbe574abf34532a6ae/46e60/kuper0201.png","srcSet":"/static/fecf2e899dec54bbe574abf34532a6ae/46e60/kuper0201.png 150w,\n/static/fecf2e899dec54bbe574abf34532a6ae/d612b/kuper0201.png 300w","sizes":"150px"},"sources":[{"srcSet":"/static/fecf2e899dec54bbe574abf34532a6ae/ae23d/kuper0201.webp 150w,\n/static/fecf2e899dec54bbe574abf34532a6ae/bd37b/kuper0201.webp 300w","type":"image/webp","sizes":"150px"}]},"width":150,"height":150}}},"thumbnail":{"__typename":"ImageSharp","ImageSharp_vertical":{"layout":"constrained","backgroundColor":"#e8e8e8","images":{"fallback":{"src":"/static/1ae1a39bac2844ea72c7af0c528da5d1/144fe/cover.jpg","srcSet":"/static/1ae1a39bac2844ea72c7af0c528da5d1/9d7b9/cover.jpg 190w,\n/static/1ae1a39bac2844ea72c7af0c528da5d1/144fe/cover.jpg 380w","sizes":"(min-width: 380px) 380px, 100vw"},"sources":[{"srcSet":"/static/1ae1a39bac2844ea72c7af0c528da5d1/228d6/cover.webp 190w,\n/static/1ae1a39bac2844ea72c7af0c528da5d1/6b99c/cover.webp 380w","type":"image/webp","sizes":"(min-width: 380px) 380px, 100vw"}]},"width":380,"height":290},"ImageSharp_hero":{"layout":"constrained","backgroundColor":"#e8e8e8","images":{"fallback":{"src":"/static/1ae1a39bac2844ea72c7af0c528da5d1/5e493/cover.jpg","srcSet":"/static/1ae1a39bac2844ea72c7af0c528da5d1/696c0/cover.jpg 800w,\n/static/1ae1a39bac2844ea72c7af0c528da5d1/5e493/cover.jpg 1600w","sizes":"(min-width: 1600px) 1600px, 100vw"},"sources":[{"srcSet":"/static/1ae1a39bac2844ea72c7af0c528da5d1/c9f06/cover.webp 800w,\n/static/1ae1a39bac2844ea72c7af0c528da5d1/f47df/cover.webp 1600w","type":"image/webp","sizes":"(min-width: 1600px) 1600px, 100vw"}]},"width":1600,"height":650}}},{"id":"577724cd-aa09-5f83-819f-ddeae94068d6","title":"BOJ 19572 가뭄(Small)","slug":"/boj19572/","link":null,"excerpt":"문제 BOJ 19572 가뭄(Small) 바로 가기 가뭄에 찌든 신촌을 위해서 국렬이는 세 칸으로 구성되어…","timeToRead":1,"featured":null,"thumbnailText":null,"date":"2023-05-25","category":{"id":"c7ace9fe-24dc-553e-9965-3777c47ebf98","name":"알고리즘","slug":"/category/algorithm/","color":"#EB6528","icon":"/static/12873adb9b5cd66ab1c15b91c54ccf98/algorithm.svg"},"author":{"id":"5e2411c8-feba-5892-8846-7e896da316b3","name":"kuper0201","slug":"/author/kuper0201/","title":"안녕하세요!","description":"컴퓨터 공학을 전공하고 있는 학생입니다.","skills":["Java","C++","Linux","MacOS","Android","IOS"],"social":[{"name":"Github","url":"https://github.com/github"}],"thumbnail":{"__typename":"ImageSharp","ImageSharp_small":{"layout":"fixed","placeholder":{"fallback":"data:image/svg+xml,%3csvg%20xmlns='http://www.w3.org/2000/svg'%20width='48'%20height='48'%20viewBox='0%200%2048%2048'%20preserveAspectRatio='none'%3e%3cpath%20d='M17%208c-4%203-6%206-6%2012l1%205%201%202c1%202%201%202%202%200%202-3%203-4%203-1h3c1-2%201-2%201%200h4c0-2%200-2%201-1%200%202%203%201%203-1s2%200%202%202%200%202%201%201l1-2v2c0%203%203-3%203-7C37%2010%2026%203%2017%208'%20fill='%23d3d3d3'%20fill-rule='evenodd'/%3e%3c/svg%3e"},"images":{"fallback":{"src":"/static/fecf2e899dec54bbe574abf34532a6ae/a7a66/kuper0201.png","srcSet":"/static/fecf2e899dec54bbe574abf34532a6ae/a7a66/kuper0201.png 48w,\n/static/fecf2e899dec54bbe574abf34532a6ae/416a0/kuper0201.png 96w","sizes":"48px"},"sources":[{"srcSet":"/static/fecf2e899dec54bbe574abf34532a6ae/a3542/kuper0201.webp 48w,\n/static/fecf2e899dec54bbe574abf34532a6ae/0f66d/kuper0201.webp 96w","type":"image/webp","sizes":"48px"}]},"width":48,"height":48},"ImageSharp_regular":{"layout":"fixed","placeholder":{"fallback":"data:image/svg+xml,%3csvg%20xmlns='http://www.w3.org/2000/svg'%20width='48'%20height='48'%20viewBox='0%200%2048%2048'%20preserveAspectRatio='none'%3e%3cpath%20d='M17%208c-4%203-6%206-6%2012l1%205%201%202c1%202%201%202%202%200%202-3%203-4%203-1h3c1-2%201-2%201%200h4c0-2%200-2%201-1%200%202%203%201%203-1s2%200%202%202%200%202%201%201l1-2v2c0%203%203-3%203-7C37%2010%2026%203%2017%208'%20fill='%23d3d3d3'%20fill-rule='evenodd'/%3e%3c/svg%3e"},"images":{"fallback":{"src":"/static/fecf2e899dec54bbe574abf34532a6ae/46e60/kuper0201.png","srcSet":"/static/fecf2e899dec54bbe574abf34532a6ae/46e60/kuper0201.png 150w,\n/static/fecf2e899dec54bbe574abf34532a6ae/d612b/kuper0201.png 300w","sizes":"150px"},"sources":[{"srcSet":"/static/fecf2e899dec54bbe574abf34532a6ae/ae23d/kuper0201.webp 150w,\n/static/fecf2e899dec54bbe574abf34532a6ae/bd37b/kuper0201.webp 300w","type":"image/webp","sizes":"150px"}]},"width":150,"height":150}}},"thumbnail":{"__typename":"ImageSharp","ImageSharp_vertical":{"layout":"constrained","backgroundColor":"#e8e8e8","images":{"fallback":{"src":"/static/1ae1a39bac2844ea72c7af0c528da5d1/144fe/cover.jpg","srcSet":"/static/1ae1a39bac2844ea72c7af0c528da5d1/9d7b9/cover.jpg 190w,\n/static/1ae1a39bac2844ea72c7af0c528da5d1/144fe/cover.jpg 380w","sizes":"(min-width: 380px) 380px, 100vw"},"sources":[{"srcSet":"/static/1ae1a39bac2844ea72c7af0c528da5d1/228d6/cover.webp 190w,\n/static/1ae1a39bac2844ea72c7af0c528da5d1/6b99c/cover.webp 380w","type":"image/webp","sizes":"(min-width: 380px) 380px, 100vw"}]},"width":380,"height":290},"ImageSharp_hero":{"layout":"constrained","backgroundColor":"#e8e8e8","images":{"fallback":{"src":"/static/1ae1a39bac2844ea72c7af0c528da5d1/5e493/cover.jpg","srcSet":"/static/1ae1a39bac2844ea72c7af0c528da5d1/696c0/cover.jpg 800w,\n/static/1ae1a39bac2844ea72c7af0c528da5d1/5e493/cover.jpg 1600w","sizes":"(min-width: 1600px) 1600px, 100vw"},"sources":[{"srcSet":"/static/1ae1a39bac2844ea72c7af0c528da5d1/c9f06/cover.webp 800w,\n/static/1ae1a39bac2844ea72c7af0c528da5d1/f47df/cover.webp 1600w","type":"image/webp","sizes":"(min-width: 1600px) 1600px, 100vw"}]},"width":1600,"height":650}}},{"id":"f8cced6e-9902-5a18-8bec-6655d6d312a7","title":"BOJ 20053 최소, 최대 2","slug":"/boj20053/","link":null,"excerpt":"문제 BOJ 20053 최소, 최대 2 바로 가기 N개의 정수가 주어진다. 이때, 최솟값과 최댓값을 구하는…","timeToRead":1,"featured":null,"thumbnailText":null,"date":"2023-05-25","category":{"id":"c7ace9fe-24dc-553e-9965-3777c47ebf98","name":"알고리즘","slug":"/category/algorithm/","color":"#EB6528","icon":"/static/12873adb9b5cd66ab1c15b91c54ccf98/algorithm.svg"},"author":{"id":"5e2411c8-feba-5892-8846-7e896da316b3","name":"kuper0201","slug":"/author/kuper0201/","title":"안녕하세요!","description":"컴퓨터 공학을 전공하고 있는 학생입니다.","skills":["Java","C++","Linux","MacOS","Android","IOS"],"social":[{"name":"Github","url":"https://github.com/github"}],"thumbnail":{"__typename":"ImageSharp","ImageSharp_small":{"layout":"fixed","placeholder":{"fallback":"data:image/svg+xml,%3csvg%20xmlns='http://www.w3.org/2000/svg'%20width='48'%20height='48'%20viewBox='0%200%2048%2048'%20preserveAspectRatio='none'%3e%3cpath%20d='M17%208c-4%203-6%206-6%2012l1%205%201%202c1%202%201%202%202%200%202-3%203-4%203-1h3c1-2%201-2%201%200h4c0-2%200-2%201-1%200%202%203%201%203-1s2%200%202%202%200%202%201%201l1-2v2c0%203%203-3%203-7C37%2010%2026%203%2017%208'%20fill='%23d3d3d3'%20fill-rule='evenodd'/%3e%3c/svg%3e"},"images":{"fallback":{"src":"/static/fecf2e899dec54bbe574abf34532a6ae/a7a66/kuper0201.png","srcSet":"/static/fecf2e899dec54bbe574abf34532a6ae/a7a66/kuper0201.png 48w,\n/static/fecf2e899dec54bbe574abf34532a6ae/416a0/kuper0201.png 96w","sizes":"48px"},"sources":[{"srcSet":"/static/fecf2e899dec54bbe574abf34532a6ae/a3542/kuper0201.webp 48w,\n/static/fecf2e899dec54bbe574abf34532a6ae/0f66d/kuper0201.webp 96w","type":"image/webp","sizes":"48px"}]},"width":48,"height":48},"ImageSharp_regular":{"layout":"fixed","placeholder":{"fallback":"data:image/svg+xml,%3csvg%20xmlns='http://www.w3.org/2000/svg'%20width='48'%20height='48'%20viewBox='0%200%2048%2048'%20preserveAspectRatio='none'%3e%3cpath%20d='M17%208c-4%203-6%206-6%2012l1%205%201%202c1%202%201%202%202%200%202-3%203-4%203-1h3c1-2%201-2%201%200h4c0-2%200-2%201-1%200%202%203%201%203-1s2%200%202%202%200%202%201%201l1-2v2c0%203%203-3%203-7C37%2010%2026%203%2017%208'%20fill='%23d3d3d3'%20fill-rule='evenodd'/%3e%3c/svg%3e"},"images":{"fallback":{"src":"/static/fecf2e899dec54bbe574abf34532a6ae/46e60/kuper0201.png","srcSet":"/static/fecf2e899dec54bbe574abf34532a6ae/46e60/kuper0201.png 150w,\n/static/fecf2e899dec54bbe574abf34532a6ae/d612b/kuper0201.png 300w","sizes":"150px"},"sources":[{"srcSet":"/static/fecf2e899dec54bbe574abf34532a6ae/ae23d/kuper0201.webp 150w,\n/static/fecf2e899dec54bbe574abf34532a6ae/bd37b/kuper0201.webp 300w","type":"image/webp","sizes":"150px"}]},"width":150,"height":150}}},"thumbnail":{"__typename":"ImageSharp","ImageSharp_vertical":{"layout":"constrained","backgroundColor":"#e8e8e8","images":{"fallback":{"src":"/static/1ae1a39bac2844ea72c7af0c528da5d1/144fe/cover.jpg","srcSet":"/static/1ae1a39bac2844ea72c7af0c528da5d1/9d7b9/cover.jpg 190w,\n/static/1ae1a39bac2844ea72c7af0c528da5d1/144fe/cover.jpg 380w","sizes":"(min-width: 380px) 380px, 100vw"},"sources":[{"srcSet":"/static/1ae1a39bac2844ea72c7af0c528da5d1/228d6/cover.webp 190w,\n/static/1ae1a39bac2844ea72c7af0c528da5d1/6b99c/cover.webp 380w","type":"image/webp","sizes":"(min-width: 380px) 380px, 100vw"}]},"width":380,"height":290},"ImageSharp_hero":{"layout":"constrained","backgroundColor":"#e8e8e8","images":{"fallback":{"src":"/static/1ae1a39bac2844ea72c7af0c528da5d1/5e493/cover.jpg","srcSet":"/static/1ae1a39bac2844ea72c7af0c528da5d1/696c0/cover.jpg 800w,\n/static/1ae1a39bac2844ea72c7af0c528da5d1/5e493/cover.jpg 1600w","sizes":"(min-width: 1600px) 1600px, 100vw"},"sources":[{"srcSet":"/static/1ae1a39bac2844ea72c7af0c528da5d1/c9f06/cover.webp 800w,\n/static/1ae1a39bac2844ea72c7af0c528da5d1/f47df/cover.webp 1600w","type":"image/webp","sizes":"(min-width: 1600px) 1600px, 100vw"}]},"width":1600,"height":650}}}],"pageInfo":{"pageCount":7,"hasPreviousPage":true,"hasNextPage":true,"currentPage":3},"totalCount":37}},"pageContext":{"slug":"/tag/algorithm/","limit":6,"skip":12,"collectionType":"tags","paginatePostsPage":true,"basePath":"/","services":{"algolia":true,"mailchimp":false,"disqus":false,"graphComment":false,"facebookComment":false},"siteUrl":"https://jeong-jun.su","mobileMenu":{"title":"Topics","items":[{"name":"인공 지능","slug":"/category/ai/"},{"name":"알고리즘","slug":"/category/algorithm/"},{"name":"전자 공학","slug":"/category/electronics/"},{"name":"서버 구축","slug":"/category/servers/"}]},"darkMode":true,"includeExcerpt":true,"includeTimeToRead":true,"includeTableOfContents":true,"imageQuality":75}},"staticQueryHashes":["1992822086","2409295108"]}