{"componentChunkName":"component---packages-blog-gatsby-blog-core-src-templates-collection-category-js","path":"/category/algorithm/page/6/","result":{"data":{"collectionInfo":{"id":"c7ace9fe-24dc-553e-9965-3777c47ebf98","name":"알고리즘","slug":"/category/algorithm/","description":"알고리즘 공부 기록"},"posts":{"nodes":[{"id":"4fe006bb-2c96-58a8-99e2-69dc92e9dbdb","title":"BOJ 10814 나이순 정렬","slug":"/boj10814/","link":null,"excerpt":"백준 10814 나이순 정렬 문제 풀이","timeToRead":1,"featured":null,"thumbnailText":null,"date":"2022-03-01","category":{"id":"c7ace9fe-24dc-553e-9965-3777c47ebf98","name":"알고리즘","slug":"/category/algorithm/","color":"#EB6528","icon":"/static/12873adb9b5cd66ab1c15b91c54ccf98/algorithm.svg"},"author":{"id":"5e2411c8-feba-5892-8846-7e896da316b3","name":"kuper0201","slug":"/author/kuper0201/","title":"안녕하세요!","description":"컴퓨터 공학을 전공하고 있는 학생입니다.","skills":["Java","C++","Linux","MacOS","Android","IOS"],"social":[{"name":"Github","url":"https://github.com/github"}],"thumbnail":{"__typename":"ImageSharp","ImageSharp_small":{"layout":"fixed","placeholder":{"fallback":"data:image/svg+xml,%3csvg%20xmlns='http://www.w3.org/2000/svg'%20width='48'%20height='48'%20viewBox='0%200%2048%2048'%20preserveAspectRatio='none'%3e%3cpath%20d='M17%208c-4%203-6%206-6%2012l1%205%201%202c1%202%201%202%202%200%202-3%203-4%203-1h3c1-2%201-2%201%200h4c0-2%200-2%201-1%200%202%203%201%203-1s2%200%202%202%200%202%201%201l1-2v2c0%203%203-3%203-7C37%2010%2026%203%2017%208'%20fill='%23d3d3d3'%20fill-rule='evenodd'/%3e%3c/svg%3e"},"images":{"fallback":{"src":"/static/fecf2e899dec54bbe574abf34532a6ae/a7a66/kuper0201.png","srcSet":"/static/fecf2e899dec54bbe574abf34532a6ae/a7a66/kuper0201.png 48w,\n/static/fecf2e899dec54bbe574abf34532a6ae/416a0/kuper0201.png 96w","sizes":"48px"},"sources":[{"srcSet":"/static/fecf2e899dec54bbe574abf34532a6ae/a3542/kuper0201.webp 48w,\n/static/fecf2e899dec54bbe574abf34532a6ae/0f66d/kuper0201.webp 96w","type":"image/webp","sizes":"48px"}]},"width":48,"height":48},"ImageSharp_regular":{"layout":"fixed","placeholder":{"fallback":"data:image/svg+xml,%3csvg%20xmlns='http://www.w3.org/2000/svg'%20width='48'%20height='48'%20viewBox='0%200%2048%2048'%20preserveAspectRatio='none'%3e%3cpath%20d='M17%208c-4%203-6%206-6%2012l1%205%201%202c1%202%201%202%202%200%202-3%203-4%203-1h3c1-2%201-2%201%200h4c0-2%200-2%201-1%200%202%203%201%203-1s2%200%202%202%200%202%201%201l1-2v2c0%203%203-3%203-7C37%2010%2026%203%2017%208'%20fill='%23d3d3d3'%20fill-rule='evenodd'/%3e%3c/svg%3e"},"images":{"fallback":{"src":"/static/fecf2e899dec54bbe574abf34532a6ae/46e60/kuper0201.png","srcSet":"/static/fecf2e899dec54bbe574abf34532a6ae/46e60/kuper0201.png 150w,\n/static/fecf2e899dec54bbe574abf34532a6ae/d612b/kuper0201.png 300w","sizes":"150px"},"sources":[{"srcSet":"/static/fecf2e899dec54bbe574abf34532a6ae/ae23d/kuper0201.webp 150w,\n/static/fecf2e899dec54bbe574abf34532a6ae/bd37b/kuper0201.webp 300w","type":"image/webp","sizes":"150px"}]},"width":150,"height":150}}},"thumbnail":{"__typename":"ImageSharp","ImageSharp_vertical":{"layout":"constrained","backgroundColor":"#e8e8e8","images":{"fallback":{"src":"/static/1ae1a39bac2844ea72c7af0c528da5d1/144fe/cover.jpg","srcSet":"/static/1ae1a39bac2844ea72c7af0c528da5d1/9d7b9/cover.jpg 190w,\n/static/1ae1a39bac2844ea72c7af0c528da5d1/144fe/cover.jpg 380w","sizes":"(min-width: 380px) 380px, 100vw"},"sources":[{"srcSet":"/static/1ae1a39bac2844ea72c7af0c528da5d1/228d6/cover.webp 190w,\n/static/1ae1a39bac2844ea72c7af0c528da5d1/6b99c/cover.webp 380w","type":"image/webp","sizes":"(min-width: 380px) 380px, 100vw"}]},"width":380,"height":290},"ImageSharp_hero":{"layout":"constrained","backgroundColor":"#e8e8e8","images":{"fallback":{"src":"/static/1ae1a39bac2844ea72c7af0c528da5d1/5e493/cover.jpg","srcSet":"/static/1ae1a39bac2844ea72c7af0c528da5d1/696c0/cover.jpg 800w,\n/static/1ae1a39bac2844ea72c7af0c528da5d1/5e493/cover.jpg 1600w","sizes":"(min-width: 1600px) 1600px, 100vw"},"sources":[{"srcSet":"/static/1ae1a39bac2844ea72c7af0c528da5d1/c9f06/cover.webp 800w,\n/static/1ae1a39bac2844ea72c7af0c528da5d1/f47df/cover.webp 1600w","type":"image/webp","sizes":"(min-width: 1600px) 1600px, 100vw"}]},"width":1600,"height":650}}},{"id":"2202fa3c-6856-590e-aa6e-b6985d73d85c","title":"BOJ 17386 선분 교차 1","slug":"/boj17386/","link":null,"excerpt":"백준 17386 선분 교차 1 문제 풀이","timeToRead":1,"featured":null,"thumbnailText":null,"date":"2021-05-21","category":{"id":"c7ace9fe-24dc-553e-9965-3777c47ebf98","name":"알고리즘","slug":"/category/algorithm/","color":"#EB6528","icon":"/static/12873adb9b5cd66ab1c15b91c54ccf98/algorithm.svg"},"author":{"id":"5e2411c8-feba-5892-8846-7e896da316b3","name":"kuper0201","slug":"/author/kuper0201/","title":"안녕하세요!","description":"컴퓨터 공학을 전공하고 있는 학생입니다.","skills":["Java","C++","Linux","MacOS","Android","IOS"],"social":[{"name":"Github","url":"https://github.com/github"}],"thumbnail":{"__typename":"ImageSharp","ImageSharp_small":{"layout":"fixed","placeholder":{"fallback":"data:image/svg+xml,%3csvg%20xmlns='http://www.w3.org/2000/svg'%20width='48'%20height='48'%20viewBox='0%200%2048%2048'%20preserveAspectRatio='none'%3e%3cpath%20d='M17%208c-4%203-6%206-6%2012l1%205%201%202c1%202%201%202%202%200%202-3%203-4%203-1h3c1-2%201-2%201%200h4c0-2%200-2%201-1%200%202%203%201%203-1s2%200%202%202%200%202%201%201l1-2v2c0%203%203-3%203-7C37%2010%2026%203%2017%208'%20fill='%23d3d3d3'%20fill-rule='evenodd'/%3e%3c/svg%3e"},"images":{"fallback":{"src":"/static/fecf2e899dec54bbe574abf34532a6ae/a7a66/kuper0201.png","srcSet":"/static/fecf2e899dec54bbe574abf34532a6ae/a7a66/kuper0201.png 48w,\n/static/fecf2e899dec54bbe574abf34532a6ae/416a0/kuper0201.png 96w","sizes":"48px"},"sources":[{"srcSet":"/static/fecf2e899dec54bbe574abf34532a6ae/a3542/kuper0201.webp 48w,\n/static/fecf2e899dec54bbe574abf34532a6ae/0f66d/kuper0201.webp 96w","type":"image/webp","sizes":"48px"}]},"width":48,"height":48},"ImageSharp_regular":{"layout":"fixed","placeholder":{"fallback":"data:image/svg+xml,%3csvg%20xmlns='http://www.w3.org/2000/svg'%20width='48'%20height='48'%20viewBox='0%200%2048%2048'%20preserveAspectRatio='none'%3e%3cpath%20d='M17%208c-4%203-6%206-6%2012l1%205%201%202c1%202%201%202%202%200%202-3%203-4%203-1h3c1-2%201-2%201%200h4c0-2%200-2%201-1%200%202%203%201%203-1s2%200%202%202%200%202%201%201l1-2v2c0%203%203-3%203-7C37%2010%2026%203%2017%208'%20fill='%23d3d3d3'%20fill-rule='evenodd'/%3e%3c/svg%3e"},"images":{"fallback":{"src":"/static/fecf2e899dec54bbe574abf34532a6ae/46e60/kuper0201.png","srcSet":"/static/fecf2e899dec54bbe574abf34532a6ae/46e60/kuper0201.png 150w,\n/static/fecf2e899dec54bbe574abf34532a6ae/d612b/kuper0201.png 300w","sizes":"150px"},"sources":[{"srcSet":"/static/fecf2e899dec54bbe574abf34532a6ae/ae23d/kuper0201.webp 150w,\n/static/fecf2e899dec54bbe574abf34532a6ae/bd37b/kuper0201.webp 300w","type":"image/webp","sizes":"150px"}]},"width":150,"height":150}}},"thumbnail":{"__typename":"ImageSharp","ImageSharp_vertical":{"layout":"constrained","backgroundColor":"#e8e8e8","images":{"fallback":{"src":"/static/1ae1a39bac2844ea72c7af0c528da5d1/144fe/cover.jpg","srcSet":"/static/1ae1a39bac2844ea72c7af0c528da5d1/9d7b9/cover.jpg 190w,\n/static/1ae1a39bac2844ea72c7af0c528da5d1/144fe/cover.jpg 380w","sizes":"(min-width: 380px) 380px, 100vw"},"sources":[{"srcSet":"/static/1ae1a39bac2844ea72c7af0c528da5d1/228d6/cover.webp 190w,\n/static/1ae1a39bac2844ea72c7af0c528da5d1/6b99c/cover.webp 380w","type":"image/webp","sizes":"(min-width: 380px) 380px, 100vw"}]},"width":380,"height":290},"ImageSharp_hero":{"layout":"constrained","backgroundColor":"#e8e8e8","images":{"fallback":{"src":"/static/1ae1a39bac2844ea72c7af0c528da5d1/5e493/cover.jpg","srcSet":"/static/1ae1a39bac2844ea72c7af0c528da5d1/696c0/cover.jpg 800w,\n/static/1ae1a39bac2844ea72c7af0c528da5d1/5e493/cover.jpg 1600w","sizes":"(min-width: 1600px) 1600px, 100vw"},"sources":[{"srcSet":"/static/1ae1a39bac2844ea72c7af0c528da5d1/c9f06/cover.webp 800w,\n/static/1ae1a39bac2844ea72c7af0c528da5d1/f47df/cover.webp 1600w","type":"image/webp","sizes":"(min-width: 1600px) 1600px, 100vw"}]},"width":1600,"height":650}}},{"id":"221f9c13-6628-5f45-b342-88acfc95c18a","title":"BOJ 10026 적록색약","slug":"/boj10026/","link":null,"excerpt":"백준 10026 적록색약 문제 풀이","timeToRead":1,"featured":null,"thumbnailText":null,"date":"2021-03-05","category":{"id":"c7ace9fe-24dc-553e-9965-3777c47ebf98","name":"알고리즘","slug":"/category/algorithm/","color":"#EB6528","icon":"/static/12873adb9b5cd66ab1c15b91c54ccf98/algorithm.svg"},"author":{"id":"5e2411c8-feba-5892-8846-7e896da316b3","name":"kuper0201","slug":"/author/kuper0201/","title":"안녕하세요!","description":"컴퓨터 공학을 전공하고 있는 학생입니다.","skills":["Java","C++","Linux","MacOS","Android","IOS"],"social":[{"name":"Github","url":"https://github.com/github"}],"thumbnail":{"__typename":"ImageSharp","ImageSharp_small":{"layout":"fixed","placeholder":{"fallback":"data:image/svg+xml,%3csvg%20xmlns='http://www.w3.org/2000/svg'%20width='48'%20height='48'%20viewBox='0%200%2048%2048'%20preserveAspectRatio='none'%3e%3cpath%20d='M17%208c-4%203-6%206-6%2012l1%205%201%202c1%202%201%202%202%200%202-3%203-4%203-1h3c1-2%201-2%201%200h4c0-2%200-2%201-1%200%202%203%201%203-1s2%200%202%202%200%202%201%201l1-2v2c0%203%203-3%203-7C37%2010%2026%203%2017%208'%20fill='%23d3d3d3'%20fill-rule='evenodd'/%3e%3c/svg%3e"},"images":{"fallback":{"src":"/static/fecf2e899dec54bbe574abf34532a6ae/a7a66/kuper0201.png","srcSet":"/static/fecf2e899dec54bbe574abf34532a6ae/a7a66/kuper0201.png 48w,\n/static/fecf2e899dec54bbe574abf34532a6ae/416a0/kuper0201.png 96w","sizes":"48px"},"sources":[{"srcSet":"/static/fecf2e899dec54bbe574abf34532a6ae/a3542/kuper0201.webp 48w,\n/static/fecf2e899dec54bbe574abf34532a6ae/0f66d/kuper0201.webp 96w","type":"image/webp","sizes":"48px"}]},"width":48,"height":48},"ImageSharp_regular":{"layout":"fixed","placeholder":{"fallback":"data:image/svg+xml,%3csvg%20xmlns='http://www.w3.org/2000/svg'%20width='48'%20height='48'%20viewBox='0%200%2048%2048'%20preserveAspectRatio='none'%3e%3cpath%20d='M17%208c-4%203-6%206-6%2012l1%205%201%202c1%202%201%202%202%200%202-3%203-4%203-1h3c1-2%201-2%201%200h4c0-2%200-2%201-1%200%202%203%201%203-1s2%200%202%202%200%202%201%201l1-2v2c0%203%203-3%203-7C37%2010%2026%203%2017%208'%20fill='%23d3d3d3'%20fill-rule='evenodd'/%3e%3c/svg%3e"},"images":{"fallback":{"src":"/static/fecf2e899dec54bbe574abf34532a6ae/46e60/kuper0201.png","srcSet":"/static/fecf2e899dec54bbe574abf34532a6ae/46e60/kuper0201.png 150w,\n/static/fecf2e899dec54bbe574abf34532a6ae/d612b/kuper0201.png 300w","sizes":"150px"},"sources":[{"srcSet":"/static/fecf2e899dec54bbe574abf34532a6ae/ae23d/kuper0201.webp 150w,\n/static/fecf2e899dec54bbe574abf34532a6ae/bd37b/kuper0201.webp 300w","type":"image/webp","sizes":"150px"}]},"width":150,"height":150}}},"thumbnail":{"__typename":"ImageSharp","ImageSharp_vertical":{"layout":"constrained","backgroundColor":"#e8e8e8","images":{"fallback":{"src":"/static/1ae1a39bac2844ea72c7af0c528da5d1/144fe/cover.jpg","srcSet":"/static/1ae1a39bac2844ea72c7af0c528da5d1/9d7b9/cover.jpg 190w,\n/static/1ae1a39bac2844ea72c7af0c528da5d1/144fe/cover.jpg 380w","sizes":"(min-width: 380px) 380px, 100vw"},"sources":[{"srcSet":"/static/1ae1a39bac2844ea72c7af0c528da5d1/228d6/cover.webp 190w,\n/static/1ae1a39bac2844ea72c7af0c528da5d1/6b99c/cover.webp 380w","type":"image/webp","sizes":"(min-width: 380px) 380px, 100vw"}]},"width":380,"height":290},"ImageSharp_hero":{"layout":"constrained","backgroundColor":"#e8e8e8","images":{"fallback":{"src":"/static/1ae1a39bac2844ea72c7af0c528da5d1/5e493/cover.jpg","srcSet":"/static/1ae1a39bac2844ea72c7af0c528da5d1/696c0/cover.jpg 800w,\n/static/1ae1a39bac2844ea72c7af0c528da5d1/5e493/cover.jpg 1600w","sizes":"(min-width: 1600px) 1600px, 100vw"},"sources":[{"srcSet":"/static/1ae1a39bac2844ea72c7af0c528da5d1/c9f06/cover.webp 800w,\n/static/1ae1a39bac2844ea72c7af0c528da5d1/f47df/cover.webp 1600w","type":"image/webp","sizes":"(min-width: 1600px) 1600px, 100vw"}]},"width":1600,"height":650}}},{"id":"a6f6ca75-88bb-5073-adfb-e294b6e66038","title":"BOJ 11758 CCW","slug":"/boj11758/","link":null,"excerpt":"백준 11758 CCW 문제 풀이","timeToRead":1,"featured":null,"thumbnailText":null,"date":"2021-03-05","category":{"id":"c7ace9fe-24dc-553e-9965-3777c47ebf98","name":"알고리즘","slug":"/category/algorithm/","color":"#EB6528","icon":"/static/12873adb9b5cd66ab1c15b91c54ccf98/algorithm.svg"},"author":{"id":"5e2411c8-feba-5892-8846-7e896da316b3","name":"kuper0201","slug":"/author/kuper0201/","title":"안녕하세요!","description":"컴퓨터 공학을 전공하고 있는 학생입니다.","skills":["Java","C++","Linux","MacOS","Android","IOS"],"social":[{"name":"Github","url":"https://github.com/github"}],"thumbnail":{"__typename":"ImageSharp","ImageSharp_small":{"layout":"fixed","placeholder":{"fallback":"data:image/svg+xml,%3csvg%20xmlns='http://www.w3.org/2000/svg'%20width='48'%20height='48'%20viewBox='0%200%2048%2048'%20preserveAspectRatio='none'%3e%3cpath%20d='M17%208c-4%203-6%206-6%2012l1%205%201%202c1%202%201%202%202%200%202-3%203-4%203-1h3c1-2%201-2%201%200h4c0-2%200-2%201-1%200%202%203%201%203-1s2%200%202%202%200%202%201%201l1-2v2c0%203%203-3%203-7C37%2010%2026%203%2017%208'%20fill='%23d3d3d3'%20fill-rule='evenodd'/%3e%3c/svg%3e"},"images":{"fallback":{"src":"/static/fecf2e899dec54bbe574abf34532a6ae/a7a66/kuper0201.png","srcSet":"/static/fecf2e899dec54bbe574abf34532a6ae/a7a66/kuper0201.png 48w,\n/static/fecf2e899dec54bbe574abf34532a6ae/416a0/kuper0201.png 96w","sizes":"48px"},"sources":[{"srcSet":"/static/fecf2e899dec54bbe574abf34532a6ae/a3542/kuper0201.webp 48w,\n/static/fecf2e899dec54bbe574abf34532a6ae/0f66d/kuper0201.webp 96w","type":"image/webp","sizes":"48px"}]},"width":48,"height":48},"ImageSharp_regular":{"layout":"fixed","placeholder":{"fallback":"data:image/svg+xml,%3csvg%20xmlns='http://www.w3.org/2000/svg'%20width='48'%20height='48'%20viewBox='0%200%2048%2048'%20preserveAspectRatio='none'%3e%3cpath%20d='M17%208c-4%203-6%206-6%2012l1%205%201%202c1%202%201%202%202%200%202-3%203-4%203-1h3c1-2%201-2%201%200h4c0-2%200-2%201-1%200%202%203%201%203-1s2%200%202%202%200%202%201%201l1-2v2c0%203%203-3%203-7C37%2010%2026%203%2017%208'%20fill='%23d3d3d3'%20fill-rule='evenodd'/%3e%3c/svg%3e"},"images":{"fallback":{"src":"/static/fecf2e899dec54bbe574abf34532a6ae/46e60/kuper0201.png","srcSet":"/static/fecf2e899dec54bbe574abf34532a6ae/46e60/kuper0201.png 150w,\n/static/fecf2e899dec54bbe574abf34532a6ae/d612b/kuper0201.png 300w","sizes":"150px"},"sources":[{"srcSet":"/static/fecf2e899dec54bbe574abf34532a6ae/ae23d/kuper0201.webp 150w,\n/static/fecf2e899dec54bbe574abf34532a6ae/bd37b/kuper0201.webp 300w","type":"image/webp","sizes":"150px"}]},"width":150,"height":150}}},"thumbnail":{"__typename":"ImageSharp","ImageSharp_vertical":{"layout":"constrained","backgroundColor":"#e8e8e8","images":{"fallback":{"src":"/static/1ae1a39bac2844ea72c7af0c528da5d1/144fe/cover.jpg","srcSet":"/static/1ae1a39bac2844ea72c7af0c528da5d1/9d7b9/cover.jpg 190w,\n/static/1ae1a39bac2844ea72c7af0c528da5d1/144fe/cover.jpg 380w","sizes":"(min-width: 380px) 380px, 100vw"},"sources":[{"srcSet":"/static/1ae1a39bac2844ea72c7af0c528da5d1/228d6/cover.webp 190w,\n/static/1ae1a39bac2844ea72c7af0c528da5d1/6b99c/cover.webp 380w","type":"image/webp","sizes":"(min-width: 380px) 380px, 100vw"}]},"width":380,"height":290},"ImageSharp_hero":{"layout":"constrained","backgroundColor":"#e8e8e8","images":{"fallback":{"src":"/static/1ae1a39bac2844ea72c7af0c528da5d1/5e493/cover.jpg","srcSet":"/static/1ae1a39bac2844ea72c7af0c528da5d1/696c0/cover.jpg 800w,\n/static/1ae1a39bac2844ea72c7af0c528da5d1/5e493/cover.jpg 1600w","sizes":"(min-width: 1600px) 1600px, 100vw"},"sources":[{"srcSet":"/static/1ae1a39bac2844ea72c7af0c528da5d1/c9f06/cover.webp 800w,\n/static/1ae1a39bac2844ea72c7af0c528da5d1/f47df/cover.webp 1600w","type":"image/webp","sizes":"(min-width: 1600px) 1600px, 100vw"}]},"width":1600,"height":650}}},{"id":"20a56d10-9331-55a3-8e5f-cb154223b639","title":"BOJ 1181 단어 정렬","slug":"/boj1181/","link":null,"excerpt":"백준 1181 단어 정렬 문제 풀이","timeToRead":1,"featured":null,"thumbnailText":null,"date":"2021-03-05","category":{"id":"c7ace9fe-24dc-553e-9965-3777c47ebf98","name":"알고리즘","slug":"/category/algorithm/","color":"#EB6528","icon":"/static/12873adb9b5cd66ab1c15b91c54ccf98/algorithm.svg"},"author":{"id":"5e2411c8-feba-5892-8846-7e896da316b3","name":"kuper0201","slug":"/author/kuper0201/","title":"안녕하세요!","description":"컴퓨터 공학을 전공하고 있는 학생입니다.","skills":["Java","C++","Linux","MacOS","Android","IOS"],"social":[{"name":"Github","url":"https://github.com/github"}],"thumbnail":{"__typename":"ImageSharp","ImageSharp_small":{"layout":"fixed","placeholder":{"fallback":"data:image/svg+xml,%3csvg%20xmlns='http://www.w3.org/2000/svg'%20width='48'%20height='48'%20viewBox='0%200%2048%2048'%20preserveAspectRatio='none'%3e%3cpath%20d='M17%208c-4%203-6%206-6%2012l1%205%201%202c1%202%201%202%202%200%202-3%203-4%203-1h3c1-2%201-2%201%200h4c0-2%200-2%201-1%200%202%203%201%203-1s2%200%202%202%200%202%201%201l1-2v2c0%203%203-3%203-7C37%2010%2026%203%2017%208'%20fill='%23d3d3d3'%20fill-rule='evenodd'/%3e%3c/svg%3e"},"images":{"fallback":{"src":"/static/fecf2e899dec54bbe574abf34532a6ae/a7a66/kuper0201.png","srcSet":"/static/fecf2e899dec54bbe574abf34532a6ae/a7a66/kuper0201.png 48w,\n/static/fecf2e899dec54bbe574abf34532a6ae/416a0/kuper0201.png 96w","sizes":"48px"},"sources":[{"srcSet":"/static/fecf2e899dec54bbe574abf34532a6ae/a3542/kuper0201.webp 48w,\n/static/fecf2e899dec54bbe574abf34532a6ae/0f66d/kuper0201.webp 96w","type":"image/webp","sizes":"48px"}]},"width":48,"height":48},"ImageSharp_regular":{"layout":"fixed","placeholder":{"fallback":"data:image/svg+xml,%3csvg%20xmlns='http://www.w3.org/2000/svg'%20width='48'%20height='48'%20viewBox='0%200%2048%2048'%20preserveAspectRatio='none'%3e%3cpath%20d='M17%208c-4%203-6%206-6%2012l1%205%201%202c1%202%201%202%202%200%202-3%203-4%203-1h3c1-2%201-2%201%200h4c0-2%200-2%201-1%200%202%203%201%203-1s2%200%202%202%200%202%201%201l1-2v2c0%203%203-3%203-7C37%2010%2026%203%2017%208'%20fill='%23d3d3d3'%20fill-rule='evenodd'/%3e%3c/svg%3e"},"images":{"fallback":{"src":"/static/fecf2e899dec54bbe574abf34532a6ae/46e60/kuper0201.png","srcSet":"/static/fecf2e899dec54bbe574abf34532a6ae/46e60/kuper0201.png 150w,\n/static/fecf2e899dec54bbe574abf34532a6ae/d612b/kuper0201.png 300w","sizes":"150px"},"sources":[{"srcSet":"/static/fecf2e899dec54bbe574abf34532a6ae/ae23d/kuper0201.webp 150w,\n/static/fecf2e899dec54bbe574abf34532a6ae/bd37b/kuper0201.webp 300w","type":"image/webp","sizes":"150px"}]},"width":150,"height":150}}},"thumbnail":{"__typename":"ImageSharp","ImageSharp_vertical":{"layout":"constrained","backgroundColor":"#e8e8e8","images":{"fallback":{"src":"/static/1ae1a39bac2844ea72c7af0c528da5d1/144fe/cover.jpg","srcSet":"/static/1ae1a39bac2844ea72c7af0c528da5d1/9d7b9/cover.jpg 190w,\n/static/1ae1a39bac2844ea72c7af0c528da5d1/144fe/cover.jpg 380w","sizes":"(min-width: 380px) 380px, 100vw"},"sources":[{"srcSet":"/static/1ae1a39bac2844ea72c7af0c528da5d1/228d6/cover.webp 190w,\n/static/1ae1a39bac2844ea72c7af0c528da5d1/6b99c/cover.webp 380w","type":"image/webp","sizes":"(min-width: 380px) 380px, 100vw"}]},"width":380,"height":290},"ImageSharp_hero":{"layout":"constrained","backgroundColor":"#e8e8e8","images":{"fallback":{"src":"/static/1ae1a39bac2844ea72c7af0c528da5d1/5e493/cover.jpg","srcSet":"/static/1ae1a39bac2844ea72c7af0c528da5d1/696c0/cover.jpg 800w,\n/static/1ae1a39bac2844ea72c7af0c528da5d1/5e493/cover.jpg 1600w","sizes":"(min-width: 1600px) 1600px, 100vw"},"sources":[{"srcSet":"/static/1ae1a39bac2844ea72c7af0c528da5d1/c9f06/cover.webp 800w,\n/static/1ae1a39bac2844ea72c7af0c528da5d1/f47df/cover.webp 1600w","type":"image/webp","sizes":"(min-width: 1600px) 1600px, 100vw"}]},"width":1600,"height":650}}},{"id":"f216759e-c168-5bb8-a4ff-254bf414b211","title":"BOJ 1245 농장 관리","slug":"/boj1245/","link":null,"excerpt":"백준 1245 농장 관리 문제 풀이","timeToRead":1,"featured":null,"thumbnailText":null,"date":"2021-03-05","category":{"id":"c7ace9fe-24dc-553e-9965-3777c47ebf98","name":"알고리즘","slug":"/category/algorithm/","color":"#EB6528","icon":"/static/12873adb9b5cd66ab1c15b91c54ccf98/algorithm.svg"},"author":{"id":"5e2411c8-feba-5892-8846-7e896da316b3","name":"kuper0201","slug":"/author/kuper0201/","title":"안녕하세요!","description":"컴퓨터 공학을 전공하고 있는 학생입니다.","skills":["Java","C++","Linux","MacOS","Android","IOS"],"social":[{"name":"Github","url":"https://github.com/github"}],"thumbnail":{"__typename":"ImageSharp","ImageSharp_small":{"layout":"fixed","placeholder":{"fallback":"data:image/svg+xml,%3csvg%20xmlns='http://www.w3.org/2000/svg'%20width='48'%20height='48'%20viewBox='0%200%2048%2048'%20preserveAspectRatio='none'%3e%3cpath%20d='M17%208c-4%203-6%206-6%2012l1%205%201%202c1%202%201%202%202%200%202-3%203-4%203-1h3c1-2%201-2%201%200h4c0-2%200-2%201-1%200%202%203%201%203-1s2%200%202%202%200%202%201%201l1-2v2c0%203%203-3%203-7C37%2010%2026%203%2017%208'%20fill='%23d3d3d3'%20fill-rule='evenodd'/%3e%3c/svg%3e"},"images":{"fallback":{"src":"/static/fecf2e899dec54bbe574abf34532a6ae/a7a66/kuper0201.png","srcSet":"/static/fecf2e899dec54bbe574abf34532a6ae/a7a66/kuper0201.png 48w,\n/static/fecf2e899dec54bbe574abf34532a6ae/416a0/kuper0201.png 96w","sizes":"48px"},"sources":[{"srcSet":"/static/fecf2e899dec54bbe574abf34532a6ae/a3542/kuper0201.webp 48w,\n/static/fecf2e899dec54bbe574abf34532a6ae/0f66d/kuper0201.webp 96w","type":"image/webp","sizes":"48px"}]},"width":48,"height":48},"ImageSharp_regular":{"layout":"fixed","placeholder":{"fallback":"data:image/svg+xml,%3csvg%20xmlns='http://www.w3.org/2000/svg'%20width='48'%20height='48'%20viewBox='0%200%2048%2048'%20preserveAspectRatio='none'%3e%3cpath%20d='M17%208c-4%203-6%206-6%2012l1%205%201%202c1%202%201%202%202%200%202-3%203-4%203-1h3c1-2%201-2%201%200h4c0-2%200-2%201-1%200%202%203%201%203-1s2%200%202%202%200%202%201%201l1-2v2c0%203%203-3%203-7C37%2010%2026%203%2017%208'%20fill='%23d3d3d3'%20fill-rule='evenodd'/%3e%3c/svg%3e"},"images":{"fallback":{"src":"/static/fecf2e899dec54bbe574abf34532a6ae/46e60/kuper0201.png","srcSet":"/static/fecf2e899dec54bbe574abf34532a6ae/46e60/kuper0201.png 150w,\n/static/fecf2e899dec54bbe574abf34532a6ae/d612b/kuper0201.png 300w","sizes":"150px"},"sources":[{"srcSet":"/static/fecf2e899dec54bbe574abf34532a6ae/ae23d/kuper0201.webp 150w,\n/static/fecf2e899dec54bbe574abf34532a6ae/bd37b/kuper0201.webp 300w","type":"image/webp","sizes":"150px"}]},"width":150,"height":150}}},"thumbnail":{"__typename":"ImageSharp","ImageSharp_vertical":{"layout":"constrained","backgroundColor":"#e8e8e8","images":{"fallback":{"src":"/static/1ae1a39bac2844ea72c7af0c528da5d1/144fe/cover.jpg","srcSet":"/static/1ae1a39bac2844ea72c7af0c528da5d1/9d7b9/cover.jpg 190w,\n/static/1ae1a39bac2844ea72c7af0c528da5d1/144fe/cover.jpg 380w","sizes":"(min-width: 380px) 380px, 100vw"},"sources":[{"srcSet":"/static/1ae1a39bac2844ea72c7af0c528da5d1/228d6/cover.webp 190w,\n/static/1ae1a39bac2844ea72c7af0c528da5d1/6b99c/cover.webp 380w","type":"image/webp","sizes":"(min-width: 380px) 380px, 100vw"}]},"width":380,"height":290},"ImageSharp_hero":{"layout":"constrained","backgroundColor":"#e8e8e8","images":{"fallback":{"src":"/static/1ae1a39bac2844ea72c7af0c528da5d1/5e493/cover.jpg","srcSet":"/static/1ae1a39bac2844ea72c7af0c528da5d1/696c0/cover.jpg 800w,\n/static/1ae1a39bac2844ea72c7af0c528da5d1/5e493/cover.jpg 1600w","sizes":"(min-width: 1600px) 1600px, 100vw"},"sources":[{"srcSet":"/static/1ae1a39bac2844ea72c7af0c528da5d1/c9f06/cover.webp 800w,\n/static/1ae1a39bac2844ea72c7af0c528da5d1/f47df/cover.webp 1600w","type":"image/webp","sizes":"(min-width: 1600px) 1600px, 100vw"}]},"width":1600,"height":650}}}],"pageInfo":{"pageCount":7,"hasPreviousPage":true,"hasNextPage":true,"currentPage":6},"totalCount":39}},"pageContext":{"slug":"/category/algorithm/","limit":6,"skip":30,"collectionType":"category","paginatePostsPage":true,"basePath":"/","services":{"algolia":true,"mailchimp":false,"disqus":false,"graphComment":false,"facebookComment":false},"siteUrl":"https://junsu.me","mobileMenu":{"title":"Topics","items":[{"name":"인공 지능","slug":"/category/ai/"},{"name":"알고리즘","slug":"/category/algorithm/"},{"name":"서버 구축","slug":"/category/server/"},{"name":"임베디드","slug":"/category/embedded/"}]},"darkMode":true,"includeExcerpt":true,"includeTimeToRead":true,"includeTableOfContents":true,"imageQuality":75}},"staticQueryHashes":["1992822086","2409295108"]}