{"componentChunkName":"component---packages-blog-gatsby-blog-core-src-templates-collection-tag-js","path":"/tag/projects/page/2/","result":{"data":{"collectionInfo":{"id":"3ccd54ad-62c6-5b3c-8581-4e625f11267f","name":"#projects","slug":"/tag/projects/"},"posts":{"nodes":[{"id":"6b45f5d8-3307-5c3b-892c-5afbff1b57b2","title":"음성으로 TV제어하기 - 3.음성 인식","slug":"/irremote3/","link":null,"excerpt":"지금까지는 음성인식 후의 신호를 만들어주는 부분을 구현했다. 이번에는 실제로 음성인식을 수행하는 부분을 만…","timeToRead":2,"featured":true,"thumbnailText":null,"date":"2020-03-04","category":{"id":"708fa6ff-d49c-56de-a471-5afab8c400cf","name":"임베디드","slug":"/category/embedded/","color":"#85C016","icon":"/static/b8f01b50118432ad40f60fc0a8734fc9/embedded.svg"},"author":{"id":"5e2411c8-feba-5892-8846-7e896da316b3","name":"kuper0201","slug":"/author/kuper0201/","title":"안녕하세요!","description":"컴퓨터 공학을 전공하고 있는 학생입니다.","skills":["Java","C++","Linux","MacOS","Android","IOS"],"social":[{"name":"Github","url":"https://github.com/github"}],"thumbnail":{"__typename":"ImageSharp","ImageSharp_small":{"layout":"fixed","placeholder":{"fallback":"data:image/svg+xml,%3csvg%20xmlns='http://www.w3.org/2000/svg'%20width='150'%20height='150'%20viewBox='0%200%20150%20150'%20preserveAspectRatio='none'%3e%3cpath%20d='M60%2022c-2%201-2%201%200%201s1%201-2%201c-7%202-13%207-16%2012l-4%207c-4%204-5%208-5%2020%201%2010%201%2012%203%2015l1%203%201-3c0-3%201-3%202%202l3%2010%203%204-1-7%201-6h1c0%206%205%2010%2013%2010%206%200%209-2%2012-9s4-7%207%201c2%205%204%207%2010%208%209%201%2013-2%2014-11%202-6%203-3%203%204l-1%207%203-4%203-6%203-8c5-9%203-23-5-35-5-7-11-13-17-14-5-2-30-3-32-2m31%2042l-5%202-7%202h-3l2-2%202-2h-2c-12%205-14%205-11%202l-4%202c-3%202-3%202-1%202l8%202h11l11-2h5l-1-3c-2-4-2-5-5-3m-36%209l-2%201c-5-2-5%2010-1%2013%202%202%2010%203%2013%201%203-1%205-5%205-10%200-3%200-3-3-5H55m36%201c3%203%203%203%202%205-2%203-5%204-8%202v-7h-3c-4%202-2%2011%202%2014l7%201c7%200%2010-3%2010-9s-1-7-7-8h-5l2%202m-32%2048c-8%201-9%204-2%2011l4%203%202-3%201-8v-3h-5'%20fill='%23d3d3d3'%20fill-rule='evenodd'/%3e%3c/svg%3e"},"images":{"fallback":{"src":"/static/fecf2e899dec54bbe574abf34532a6ae/a7a66/kuper0201.png","srcSet":"/static/fecf2e899dec54bbe574abf34532a6ae/a7a66/kuper0201.png 48w,\n/static/fecf2e899dec54bbe574abf34532a6ae/416a0/kuper0201.png 96w","sizes":"48px"},"sources":[{"srcSet":"/static/fecf2e899dec54bbe574abf34532a6ae/a3542/kuper0201.webp 48w,\n/static/fecf2e899dec54bbe574abf34532a6ae/0f66d/kuper0201.webp 96w","type":"image/webp","sizes":"48px"}]},"width":48,"height":48},"ImageSharp_regular":{"layout":"fixed","placeholder":{"fallback":"data:image/svg+xml,%3csvg%20xmlns='http://www.w3.org/2000/svg'%20width='150'%20height='150'%20viewBox='0%200%20150%20150'%20preserveAspectRatio='none'%3e%3cpath%20d='M60%2022c-2%201-2%201%200%201s1%201-2%201c-7%202-13%207-16%2012l-4%207c-4%204-5%208-5%2020%201%2010%201%2012%203%2015l1%203%201-3c0-3%201-3%202%202l3%2010%203%204-1-7%201-6h1c0%206%205%2010%2013%2010%206%200%209-2%2012-9s4-7%207%201c2%205%204%207%2010%208%209%201%2013-2%2014-11%202-6%203-3%203%204l-1%207%203-4%203-6%203-8c5-9%203-23-5-35-5-7-11-13-17-14-5-2-30-3-32-2m31%2042l-5%202-7%202h-3l2-2%202-2h-2c-12%205-14%205-11%202l-4%202c-3%202-3%202-1%202l8%202h11l11-2h5l-1-3c-2-4-2-5-5-3m-36%209l-2%201c-5-2-5%2010-1%2013%202%202%2010%203%2013%201%203-1%205-5%205-10%200-3%200-3-3-5H55m36%201c3%203%203%203%202%205-2%203-5%204-8%202v-7h-3c-4%202-2%2011%202%2014l7%201c7%200%2010-3%2010-9s-1-7-7-8h-5l2%202m-32%2048c-8%201-9%204-2%2011l4%203%202-3%201-8v-3h-5'%20fill='%23d3d3d3'%20fill-rule='evenodd'/%3e%3c/svg%3e"},"images":{"fallback":{"src":"/static/fecf2e899dec54bbe574abf34532a6ae/46e60/kuper0201.png","srcSet":"/static/fecf2e899dec54bbe574abf34532a6ae/46e60/kuper0201.png 150w,\n/static/fecf2e899dec54bbe574abf34532a6ae/d612b/kuper0201.png 300w","sizes":"150px"},"sources":[{"srcSet":"/static/fecf2e899dec54bbe574abf34532a6ae/ae23d/kuper0201.webp 150w,\n/static/fecf2e899dec54bbe574abf34532a6ae/bd37b/kuper0201.webp 300w","type":"image/webp","sizes":"150px"}]},"width":150,"height":150}}},"thumbnail":{"__typename":"ImageSharp","ImageSharp_vertical":{"layout":"constrained","backgroundColor":"#281818","images":{"fallback":{"src":"/static/d1da66d303c86f47754a34a8f8de8ffb/144fe/cover.jpg","srcSet":"/static/d1da66d303c86f47754a34a8f8de8ffb/9d7b9/cover.jpg 190w,\n/static/d1da66d303c86f47754a34a8f8de8ffb/144fe/cover.jpg 380w","sizes":"(min-width: 380px) 380px, 100vw"},"sources":[{"srcSet":"/static/d1da66d303c86f47754a34a8f8de8ffb/228d6/cover.webp 190w,\n/static/d1da66d303c86f47754a34a8f8de8ffb/6b99c/cover.webp 380w","type":"image/webp","sizes":"(min-width: 380px) 380px, 100vw"}]},"width":380,"height":290},"ImageSharp_hero":{"layout":"constrained","backgroundColor":"#281818","images":{"fallback":{"src":"/static/d1da66d303c86f47754a34a8f8de8ffb/5e493/cover.jpg","srcSet":"/static/d1da66d303c86f47754a34a8f8de8ffb/696c0/cover.jpg 800w,\n/static/d1da66d303c86f47754a34a8f8de8ffb/5e493/cover.jpg 1600w","sizes":"(min-width: 1600px) 1600px, 100vw"},"sources":[{"srcSet":"/static/d1da66d303c86f47754a34a8f8de8ffb/c9f06/cover.webp 800w,\n/static/d1da66d303c86f47754a34a8f8de8ffb/f47df/cover.webp 1600w","type":"image/webp","sizes":"(min-width: 1600px) 1600px, 100vw"}]},"width":1600,"height":650}}},{"id":"13231675-f980-50cc-9c9f-d2da33ffadda","title":"음성으로 TV제어하기 - 2.TV 제어","slug":"/irremote2/","link":null,"excerpt":"이 전 글에서는 리모컨의 적외선 신호를 복제하는 방법에 대하여 다뤘다. 이번 글에서는 복제한 신호를 이용해…","timeToRead":2,"featured":true,"thumbnailText":null,"date":"2020-03-03","category":{"id":"708fa6ff-d49c-56de-a471-5afab8c400cf","name":"임베디드","slug":"/category/embedded/","color":"#85C016","icon":"/static/b8f01b50118432ad40f60fc0a8734fc9/embedded.svg"},"author":{"id":"5e2411c8-feba-5892-8846-7e896da316b3","name":"kuper0201","slug":"/author/kuper0201/","title":"안녕하세요!","description":"컴퓨터 공학을 전공하고 있는 학생입니다.","skills":["Java","C++","Linux","MacOS","Android","IOS"],"social":[{"name":"Github","url":"https://github.com/github"}],"thumbnail":{"__typename":"ImageSharp","ImageSharp_small":{"layout":"fixed","placeholder":{"fallback":"data:image/svg+xml,%3csvg%20xmlns='http://www.w3.org/2000/svg'%20width='150'%20height='150'%20viewBox='0%200%20150%20150'%20preserveAspectRatio='none'%3e%3cpath%20d='M60%2022c-2%201-2%201%200%201s1%201-2%201c-7%202-13%207-16%2012l-4%207c-4%204-5%208-5%2020%201%2010%201%2012%203%2015l1%203%201-3c0-3%201-3%202%202l3%2010%203%204-1-7%201-6h1c0%206%205%2010%2013%2010%206%200%209-2%2012-9s4-7%207%201c2%205%204%207%2010%208%209%201%2013-2%2014-11%202-6%203-3%203%204l-1%207%203-4%203-6%203-8c5-9%203-23-5-35-5-7-11-13-17-14-5-2-30-3-32-2m31%2042l-5%202-7%202h-3l2-2%202-2h-2c-12%205-14%205-11%202l-4%202c-3%202-3%202-1%202l8%202h11l11-2h5l-1-3c-2-4-2-5-5-3m-36%209l-2%201c-5-2-5%2010-1%2013%202%202%2010%203%2013%201%203-1%205-5%205-10%200-3%200-3-3-5H55m36%201c3%203%203%203%202%205-2%203-5%204-8%202v-7h-3c-4%202-2%2011%202%2014l7%201c7%200%2010-3%2010-9s-1-7-7-8h-5l2%202m-32%2048c-8%201-9%204-2%2011l4%203%202-3%201-8v-3h-5'%20fill='%23d3d3d3'%20fill-rule='evenodd'/%3e%3c/svg%3e"},"images":{"fallback":{"src":"/static/fecf2e899dec54bbe574abf34532a6ae/a7a66/kuper0201.png","srcSet":"/static/fecf2e899dec54bbe574abf34532a6ae/a7a66/kuper0201.png 48w,\n/static/fecf2e899dec54bbe574abf34532a6ae/416a0/kuper0201.png 96w","sizes":"48px"},"sources":[{"srcSet":"/static/fecf2e899dec54bbe574abf34532a6ae/a3542/kuper0201.webp 48w,\n/static/fecf2e899dec54bbe574abf34532a6ae/0f66d/kuper0201.webp 96w","type":"image/webp","sizes":"48px"}]},"width":48,"height":48},"ImageSharp_regular":{"layout":"fixed","placeholder":{"fallback":"data:image/svg+xml,%3csvg%20xmlns='http://www.w3.org/2000/svg'%20width='150'%20height='150'%20viewBox='0%200%20150%20150'%20preserveAspectRatio='none'%3e%3cpath%20d='M60%2022c-2%201-2%201%200%201s1%201-2%201c-7%202-13%207-16%2012l-4%207c-4%204-5%208-5%2020%201%2010%201%2012%203%2015l1%203%201-3c0-3%201-3%202%202l3%2010%203%204-1-7%201-6h1c0%206%205%2010%2013%2010%206%200%209-2%2012-9s4-7%207%201c2%205%204%207%2010%208%209%201%2013-2%2014-11%202-6%203-3%203%204l-1%207%203-4%203-6%203-8c5-9%203-23-5-35-5-7-11-13-17-14-5-2-30-3-32-2m31%2042l-5%202-7%202h-3l2-2%202-2h-2c-12%205-14%205-11%202l-4%202c-3%202-3%202-1%202l8%202h11l11-2h5l-1-3c-2-4-2-5-5-3m-36%209l-2%201c-5-2-5%2010-1%2013%202%202%2010%203%2013%201%203-1%205-5%205-10%200-3%200-3-3-5H55m36%201c3%203%203%203%202%205-2%203-5%204-8%202v-7h-3c-4%202-2%2011%202%2014l7%201c7%200%2010-3%2010-9s-1-7-7-8h-5l2%202m-32%2048c-8%201-9%204-2%2011l4%203%202-3%201-8v-3h-5'%20fill='%23d3d3d3'%20fill-rule='evenodd'/%3e%3c/svg%3e"},"images":{"fallback":{"src":"/static/fecf2e899dec54bbe574abf34532a6ae/46e60/kuper0201.png","srcSet":"/static/fecf2e899dec54bbe574abf34532a6ae/46e60/kuper0201.png 150w,\n/static/fecf2e899dec54bbe574abf34532a6ae/d612b/kuper0201.png 300w","sizes":"150px"},"sources":[{"srcSet":"/static/fecf2e899dec54bbe574abf34532a6ae/ae23d/kuper0201.webp 150w,\n/static/fecf2e899dec54bbe574abf34532a6ae/bd37b/kuper0201.webp 300w","type":"image/webp","sizes":"150px"}]},"width":150,"height":150}}},"thumbnail":{"__typename":"ImageSharp","ImageSharp_vertical":{"layout":"constrained","backgroundColor":"#281818","images":{"fallback":{"src":"/static/d1da66d303c86f47754a34a8f8de8ffb/144fe/cover.jpg","srcSet":"/static/d1da66d303c86f47754a34a8f8de8ffb/9d7b9/cover.jpg 190w,\n/static/d1da66d303c86f47754a34a8f8de8ffb/144fe/cover.jpg 380w","sizes":"(min-width: 380px) 380px, 100vw"},"sources":[{"srcSet":"/static/d1da66d303c86f47754a34a8f8de8ffb/228d6/cover.webp 190w,\n/static/d1da66d303c86f47754a34a8f8de8ffb/6b99c/cover.webp 380w","type":"image/webp","sizes":"(min-width: 380px) 380px, 100vw"}]},"width":380,"height":290},"ImageSharp_hero":{"layout":"constrained","backgroundColor":"#281818","images":{"fallback":{"src":"/static/d1da66d303c86f47754a34a8f8de8ffb/5e493/cover.jpg","srcSet":"/static/d1da66d303c86f47754a34a8f8de8ffb/696c0/cover.jpg 800w,\n/static/d1da66d303c86f47754a34a8f8de8ffb/5e493/cover.jpg 1600w","sizes":"(min-width: 1600px) 1600px, 100vw"},"sources":[{"srcSet":"/static/d1da66d303c86f47754a34a8f8de8ffb/c9f06/cover.webp 800w,\n/static/d1da66d303c86f47754a34a8f8de8ffb/f47df/cover.webp 1600w","type":"image/webp","sizes":"(min-width: 1600px) 1600px, 100vw"}]},"width":1600,"height":650}}},{"id":"19fe8d04-796f-5c01-84dc-3fe18c58042c","title":"음성으로 TV제어하기 - 1.신호 복제","slug":"/irremote1/","link":null,"excerpt":"여가 생활을 즐기기 위해 TV를 보려 하면 리모컨이 저 멀리 있거나, 어디 있는지 모를 때가 많다. 그럴 …","timeToRead":2,"featured":true,"thumbnailText":null,"date":"2020-03-02","category":{"id":"708fa6ff-d49c-56de-a471-5afab8c400cf","name":"임베디드","slug":"/category/embedded/","color":"#85C016","icon":"/static/b8f01b50118432ad40f60fc0a8734fc9/embedded.svg"},"author":{"id":"5e2411c8-feba-5892-8846-7e896da316b3","name":"kuper0201","slug":"/author/kuper0201/","title":"안녕하세요!","description":"컴퓨터 공학을 전공하고 있는 학생입니다.","skills":["Java","C++","Linux","MacOS","Android","IOS"],"social":[{"name":"Github","url":"https://github.com/github"}],"thumbnail":{"__typename":"ImageSharp","ImageSharp_small":{"layout":"fixed","placeholder":{"fallback":"data:image/svg+xml,%3csvg%20xmlns='http://www.w3.org/2000/svg'%20width='150'%20height='150'%20viewBox='0%200%20150%20150'%20preserveAspectRatio='none'%3e%3cpath%20d='M60%2022c-2%201-2%201%200%201s1%201-2%201c-7%202-13%207-16%2012l-4%207c-4%204-5%208-5%2020%201%2010%201%2012%203%2015l1%203%201-3c0-3%201-3%202%202l3%2010%203%204-1-7%201-6h1c0%206%205%2010%2013%2010%206%200%209-2%2012-9s4-7%207%201c2%205%204%207%2010%208%209%201%2013-2%2014-11%202-6%203-3%203%204l-1%207%203-4%203-6%203-8c5-9%203-23-5-35-5-7-11-13-17-14-5-2-30-3-32-2m31%2042l-5%202-7%202h-3l2-2%202-2h-2c-12%205-14%205-11%202l-4%202c-3%202-3%202-1%202l8%202h11l11-2h5l-1-3c-2-4-2-5-5-3m-36%209l-2%201c-5-2-5%2010-1%2013%202%202%2010%203%2013%201%203-1%205-5%205-10%200-3%200-3-3-5H55m36%201c3%203%203%203%202%205-2%203-5%204-8%202v-7h-3c-4%202-2%2011%202%2014l7%201c7%200%2010-3%2010-9s-1-7-7-8h-5l2%202m-32%2048c-8%201-9%204-2%2011l4%203%202-3%201-8v-3h-5'%20fill='%23d3d3d3'%20fill-rule='evenodd'/%3e%3c/svg%3e"},"images":{"fallback":{"src":"/static/fecf2e899dec54bbe574abf34532a6ae/a7a66/kuper0201.png","srcSet":"/static/fecf2e899dec54bbe574abf34532a6ae/a7a66/kuper0201.png 48w,\n/static/fecf2e899dec54bbe574abf34532a6ae/416a0/kuper0201.png 96w","sizes":"48px"},"sources":[{"srcSet":"/static/fecf2e899dec54bbe574abf34532a6ae/a3542/kuper0201.webp 48w,\n/static/fecf2e899dec54bbe574abf34532a6ae/0f66d/kuper0201.webp 96w","type":"image/webp","sizes":"48px"}]},"width":48,"height":48},"ImageSharp_regular":{"layout":"fixed","placeholder":{"fallback":"data:image/svg+xml,%3csvg%20xmlns='http://www.w3.org/2000/svg'%20width='150'%20height='150'%20viewBox='0%200%20150%20150'%20preserveAspectRatio='none'%3e%3cpath%20d='M60%2022c-2%201-2%201%200%201s1%201-2%201c-7%202-13%207-16%2012l-4%207c-4%204-5%208-5%2020%201%2010%201%2012%203%2015l1%203%201-3c0-3%201-3%202%202l3%2010%203%204-1-7%201-6h1c0%206%205%2010%2013%2010%206%200%209-2%2012-9s4-7%207%201c2%205%204%207%2010%208%209%201%2013-2%2014-11%202-6%203-3%203%204l-1%207%203-4%203-6%203-8c5-9%203-23-5-35-5-7-11-13-17-14-5-2-30-3-32-2m31%2042l-5%202-7%202h-3l2-2%202-2h-2c-12%205-14%205-11%202l-4%202c-3%202-3%202-1%202l8%202h11l11-2h5l-1-3c-2-4-2-5-5-3m-36%209l-2%201c-5-2-5%2010-1%2013%202%202%2010%203%2013%201%203-1%205-5%205-10%200-3%200-3-3-5H55m36%201c3%203%203%203%202%205-2%203-5%204-8%202v-7h-3c-4%202-2%2011%202%2014l7%201c7%200%2010-3%2010-9s-1-7-7-8h-5l2%202m-32%2048c-8%201-9%204-2%2011l4%203%202-3%201-8v-3h-5'%20fill='%23d3d3d3'%20fill-rule='evenodd'/%3e%3c/svg%3e"},"images":{"fallback":{"src":"/static/fecf2e899dec54bbe574abf34532a6ae/46e60/kuper0201.png","srcSet":"/static/fecf2e899dec54bbe574abf34532a6ae/46e60/kuper0201.png 150w,\n/static/fecf2e899dec54bbe574abf34532a6ae/d612b/kuper0201.png 300w","sizes":"150px"},"sources":[{"srcSet":"/static/fecf2e899dec54bbe574abf34532a6ae/ae23d/kuper0201.webp 150w,\n/static/fecf2e899dec54bbe574abf34532a6ae/bd37b/kuper0201.webp 300w","type":"image/webp","sizes":"150px"}]},"width":150,"height":150}}},"thumbnail":{"__typename":"ImageSharp","ImageSharp_vertical":{"layout":"constrained","backgroundColor":"#281818","images":{"fallback":{"src":"/static/d1da66d303c86f47754a34a8f8de8ffb/144fe/cover.jpg","srcSet":"/static/d1da66d303c86f47754a34a8f8de8ffb/9d7b9/cover.jpg 190w,\n/static/d1da66d303c86f47754a34a8f8de8ffb/144fe/cover.jpg 380w","sizes":"(min-width: 380px) 380px, 100vw"},"sources":[{"srcSet":"/static/d1da66d303c86f47754a34a8f8de8ffb/228d6/cover.webp 190w,\n/static/d1da66d303c86f47754a34a8f8de8ffb/6b99c/cover.webp 380w","type":"image/webp","sizes":"(min-width: 380px) 380px, 100vw"}]},"width":380,"height":290},"ImageSharp_hero":{"layout":"constrained","backgroundColor":"#281818","images":{"fallback":{"src":"/static/d1da66d303c86f47754a34a8f8de8ffb/5e493/cover.jpg","srcSet":"/static/d1da66d303c86f47754a34a8f8de8ffb/696c0/cover.jpg 800w,\n/static/d1da66d303c86f47754a34a8f8de8ffb/5e493/cover.jpg 1600w","sizes":"(min-width: 1600px) 1600px, 100vw"},"sources":[{"srcSet":"/static/d1da66d303c86f47754a34a8f8de8ffb/c9f06/cover.webp 800w,\n/static/d1da66d303c86f47754a34a8f8de8ffb/f47df/cover.webp 1600w","type":"image/webp","sizes":"(min-width: 1600px) 1600px, 100vw"}]},"width":1600,"height":650}}}],"pageInfo":{"pageCount":2,"hasPreviousPage":true,"hasNextPage":false,"currentPage":2},"totalCount":9}},"pageContext":{"slug":"/tag/projects/","limit":6,"skip":6,"collectionType":"tags","paginatePostsPage":true,"basePath":"/","services":{"algolia":true,"mailchimp":false,"disqus":false,"graphComment":false,"facebookComment":false},"siteUrl":"https://junsu.me","mobileMenu":{"title":"Topics","items":[{"name":"알고리즘","slug":"/category/algorithm/"},{"name":"인공 지능","slug":"/category/ai/"},{"name":"임베디드","slug":"/category/embedded/"},{"name":"서버 구축","slug":"/category/server/"}]},"darkMode":true,"includeExcerpt":true,"includeTimeToRead":true,"includeTableOfContents":true,"imageQuality":75}},"staticQueryHashes":["1992822086","2409295108"]}