{"componentChunkName":"component---packages-blog-gatsby-blog-core-src-templates-collection-category-js","path":"/category/ai/","result":{"data":{"collectionInfo":{"id":"c3714436-bf14-5db8-be8d-ed18f8e15d93","name":"인공 지능","slug":"/category/ai/","description":"인공 지능 공부 기록"},"posts":{"nodes":[{"id":"3e67ff65-0f01-56d9-9fc9-f1b59ea6977d","title":"차량 자율주행 모델 개발 - 1.환경 구축","slug":"/ai-self-driving-env-setup/","link":null,"excerpt":"자율 주행 모델 개발에 필요한 시뮬레이터 환경을 구축하는 방법에 대해 설명합니다.","timeToRead":1,"featured":null,"thumbnailText":null,"date":"2024-10-13","category":{"id":"c3714436-bf14-5db8-be8d-ed18f8e15d93","name":"인공 지능","slug":"/category/ai/","color":"#341EA9","icon":"/static/28f22cadac39f9816eef3609bb95a85e/ai.svg"},"author":{"id":"5e2411c8-feba-5892-8846-7e896da316b3","name":"kuper0201","slug":"/author/kuper0201/","title":"안녕하세요!","description":"컴퓨터 공학을 전공하고 있는 학생입니다.","skills":["Java","C++","Linux","MacOS","Android","IOS"],"social":[{"name":"Github","url":"https://github.com/github"}],"thumbnail":{"__typename":"ImageSharp","ImageSharp_small":{"layout":"fixed","placeholder":{"fallback":"data:image/svg+xml,%3csvg%20xmlns='http://www.w3.org/2000/svg'%20width='48'%20height='48'%20viewBox='0%200%2048%2048'%20preserveAspectRatio='none'%3e%3cpath%20d='M17%208c-4%203-6%206-6%2012l1%205%201%202c1%202%201%202%202%200%202-3%203-4%203-1h3c1-2%201-2%201%200h4c0-2%200-2%201-1%200%202%203%201%203-1s2%200%202%202%200%202%201%201l1-2v2c0%203%203-3%203-7C37%2010%2026%203%2017%208'%20fill='%23d3d3d3'%20fill-rule='evenodd'/%3e%3c/svg%3e"},"images":{"fallback":{"src":"/static/fecf2e899dec54bbe574abf34532a6ae/a7a66/kuper0201.png","srcSet":"/static/fecf2e899dec54bbe574abf34532a6ae/a7a66/kuper0201.png 48w,\n/static/fecf2e899dec54bbe574abf34532a6ae/416a0/kuper0201.png 96w","sizes":"48px"},"sources":[{"srcSet":"/static/fecf2e899dec54bbe574abf34532a6ae/a3542/kuper0201.webp 48w,\n/static/fecf2e899dec54bbe574abf34532a6ae/0f66d/kuper0201.webp 96w","type":"image/webp","sizes":"48px"}]},"width":48,"height":48},"ImageSharp_regular":{"layout":"fixed","placeholder":{"fallback":"data:image/svg+xml,%3csvg%20xmlns='http://www.w3.org/2000/svg'%20width='48'%20height='48'%20viewBox='0%200%2048%2048'%20preserveAspectRatio='none'%3e%3cpath%20d='M17%208c-4%203-6%206-6%2012l1%205%201%202c1%202%201%202%202%200%202-3%203-4%203-1h3c1-2%201-2%201%200h4c0-2%200-2%201-1%200%202%203%201%203-1s2%200%202%202%200%202%201%201l1-2v2c0%203%203-3%203-7C37%2010%2026%203%2017%208'%20fill='%23d3d3d3'%20fill-rule='evenodd'/%3e%3c/svg%3e"},"images":{"fallback":{"src":"/static/fecf2e899dec54bbe574abf34532a6ae/46e60/kuper0201.png","srcSet":"/static/fecf2e899dec54bbe574abf34532a6ae/46e60/kuper0201.png 150w,\n/static/fecf2e899dec54bbe574abf34532a6ae/d612b/kuper0201.png 300w","sizes":"150px"},"sources":[{"srcSet":"/static/fecf2e899dec54bbe574abf34532a6ae/ae23d/kuper0201.webp 150w,\n/static/fecf2e899dec54bbe574abf34532a6ae/bd37b/kuper0201.webp 300w","type":"image/webp","sizes":"150px"}]},"width":150,"height":150}}},"thumbnail":{"__typename":"ImageSharp","ImageSharp_vertical":{"layout":"constrained","backgroundColor":"#080808","images":{"fallback":{"src":"/static/f746b456fa193750215e61db01af612c/144fe/cover.jpg","srcSet":"/static/f746b456fa193750215e61db01af612c/9d7b9/cover.jpg 190w,\n/static/f746b456fa193750215e61db01af612c/144fe/cover.jpg 380w","sizes":"(min-width: 380px) 380px, 100vw"},"sources":[{"srcSet":"/static/f746b456fa193750215e61db01af612c/228d6/cover.webp 190w,\n/static/f746b456fa193750215e61db01af612c/6b99c/cover.webp 380w","type":"image/webp","sizes":"(min-width: 380px) 380px, 100vw"}]},"width":380,"height":290},"ImageSharp_hero":{"layout":"constrained","backgroundColor":"#080808","images":{"fallback":{"src":"/static/f746b456fa193750215e61db01af612c/5e493/cover.jpg","srcSet":"/static/f746b456fa193750215e61db01af612c/696c0/cover.jpg 800w,\n/static/f746b456fa193750215e61db01af612c/5e493/cover.jpg 1600w","sizes":"(min-width: 1600px) 1600px, 100vw"},"sources":[{"srcSet":"/static/f746b456fa193750215e61db01af612c/c9f06/cover.webp 800w,\n/static/f746b456fa193750215e61db01af612c/f47df/cover.webp 1600w","type":"image/webp","sizes":"(min-width: 1600px) 1600px, 100vw"}]},"width":1600,"height":650}}},{"id":"2ce071c4-c08b-56d7-9964-fa6a1d0fd5ca","title":"피아노 음악 채보 - 3.후처리 및 예측","slug":"/piano-transcription-postproc/","link":null,"excerpt":"학습된 모델을 통해 피아노 음을 예측하고 MIDI 파일로 변환하는 방법에 대해 설명합니다.","timeToRead":1,"featured":null,"thumbnailText":null,"date":"2023-09-13","category":{"id":"c3714436-bf14-5db8-be8d-ed18f8e15d93","name":"인공 지능","slug":"/category/ai/","color":"#341EA9","icon":"/static/28f22cadac39f9816eef3609bb95a85e/ai.svg"},"author":{"id":"5e2411c8-feba-5892-8846-7e896da316b3","name":"kuper0201","slug":"/author/kuper0201/","title":"안녕하세요!","description":"컴퓨터 공학을 전공하고 있는 학생입니다.","skills":["Java","C++","Linux","MacOS","Android","IOS"],"social":[{"name":"Github","url":"https://github.com/github"}],"thumbnail":{"__typename":"ImageSharp","ImageSharp_small":{"layout":"fixed","placeholder":{"fallback":"data:image/svg+xml,%3csvg%20xmlns='http://www.w3.org/2000/svg'%20width='48'%20height='48'%20viewBox='0%200%2048%2048'%20preserveAspectRatio='none'%3e%3cpath%20d='M17%208c-4%203-6%206-6%2012l1%205%201%202c1%202%201%202%202%200%202-3%203-4%203-1h3c1-2%201-2%201%200h4c0-2%200-2%201-1%200%202%203%201%203-1s2%200%202%202%200%202%201%201l1-2v2c0%203%203-3%203-7C37%2010%2026%203%2017%208'%20fill='%23d3d3d3'%20fill-rule='evenodd'/%3e%3c/svg%3e"},"images":{"fallback":{"src":"/static/fecf2e899dec54bbe574abf34532a6ae/a7a66/kuper0201.png","srcSet":"/static/fecf2e899dec54bbe574abf34532a6ae/a7a66/kuper0201.png 48w,\n/static/fecf2e899dec54bbe574abf34532a6ae/416a0/kuper0201.png 96w","sizes":"48px"},"sources":[{"srcSet":"/static/fecf2e899dec54bbe574abf34532a6ae/a3542/kuper0201.webp 48w,\n/static/fecf2e899dec54bbe574abf34532a6ae/0f66d/kuper0201.webp 96w","type":"image/webp","sizes":"48px"}]},"width":48,"height":48},"ImageSharp_regular":{"layout":"fixed","placeholder":{"fallback":"data:image/svg+xml,%3csvg%20xmlns='http://www.w3.org/2000/svg'%20width='48'%20height='48'%20viewBox='0%200%2048%2048'%20preserveAspectRatio='none'%3e%3cpath%20d='M17%208c-4%203-6%206-6%2012l1%205%201%202c1%202%201%202%202%200%202-3%203-4%203-1h3c1-2%201-2%201%200h4c0-2%200-2%201-1%200%202%203%201%203-1s2%200%202%202%200%202%201%201l1-2v2c0%203%203-3%203-7C37%2010%2026%203%2017%208'%20fill='%23d3d3d3'%20fill-rule='evenodd'/%3e%3c/svg%3e"},"images":{"fallback":{"src":"/static/fecf2e899dec54bbe574abf34532a6ae/46e60/kuper0201.png","srcSet":"/static/fecf2e899dec54bbe574abf34532a6ae/46e60/kuper0201.png 150w,\n/static/fecf2e899dec54bbe574abf34532a6ae/d612b/kuper0201.png 300w","sizes":"150px"},"sources":[{"srcSet":"/static/fecf2e899dec54bbe574abf34532a6ae/ae23d/kuper0201.webp 150w,\n/static/fecf2e899dec54bbe574abf34532a6ae/bd37b/kuper0201.webp 300w","type":"image/webp","sizes":"150px"}]},"width":150,"height":150}}},"thumbnail":{"__typename":"ImageSharp","ImageSharp_vertical":{"layout":"constrained","backgroundColor":"#f8d8c8","images":{"fallback":{"src":"/static/f17c8c5c6d7d8d1a691bffe131523793/144fe/cover.jpg","srcSet":"/static/f17c8c5c6d7d8d1a691bffe131523793/9d7b9/cover.jpg 190w,\n/static/f17c8c5c6d7d8d1a691bffe131523793/144fe/cover.jpg 380w","sizes":"(min-width: 380px) 380px, 100vw"},"sources":[{"srcSet":"/static/f17c8c5c6d7d8d1a691bffe131523793/228d6/cover.webp 190w,\n/static/f17c8c5c6d7d8d1a691bffe131523793/6b99c/cover.webp 380w","type":"image/webp","sizes":"(min-width: 380px) 380px, 100vw"}]},"width":380,"height":290},"ImageSharp_hero":{"layout":"constrained","backgroundColor":"#f8d8c8","images":{"fallback":{"src":"/static/f17c8c5c6d7d8d1a691bffe131523793/5e493/cover.jpg","srcSet":"/static/f17c8c5c6d7d8d1a691bffe131523793/696c0/cover.jpg 800w,\n/static/f17c8c5c6d7d8d1a691bffe131523793/5e493/cover.jpg 1600w","sizes":"(min-width: 1600px) 1600px, 100vw"},"sources":[{"srcSet":"/static/f17c8c5c6d7d8d1a691bffe131523793/c9f06/cover.webp 800w,\n/static/f17c8c5c6d7d8d1a691bffe131523793/f47df/cover.webp 1600w","type":"image/webp","sizes":"(min-width: 1600px) 1600px, 100vw"}]},"width":1600,"height":650}}},{"id":"00b25970-5fa2-51f7-8e12-354b7bae4b89","title":"피아노 음악 채보 - 2.모델 구현","slug":"/piano-transcription-model/","link":null,"excerpt":"피아노 채보를 위한 모델을 비교하고 구현하는 방법에 대해 설명합니다.","timeToRead":2,"featured":null,"thumbnailText":null,"date":"2023-09-12","category":{"id":"c3714436-bf14-5db8-be8d-ed18f8e15d93","name":"인공 지능","slug":"/category/ai/","color":"#341EA9","icon":"/static/28f22cadac39f9816eef3609bb95a85e/ai.svg"},"author":{"id":"5e2411c8-feba-5892-8846-7e896da316b3","name":"kuper0201","slug":"/author/kuper0201/","title":"안녕하세요!","description":"컴퓨터 공학을 전공하고 있는 학생입니다.","skills":["Java","C++","Linux","MacOS","Android","IOS"],"social":[{"name":"Github","url":"https://github.com/github"}],"thumbnail":{"__typename":"ImageSharp","ImageSharp_small":{"layout":"fixed","placeholder":{"fallback":"data:image/svg+xml,%3csvg%20xmlns='http://www.w3.org/2000/svg'%20width='48'%20height='48'%20viewBox='0%200%2048%2048'%20preserveAspectRatio='none'%3e%3cpath%20d='M17%208c-4%203-6%206-6%2012l1%205%201%202c1%202%201%202%202%200%202-3%203-4%203-1h3c1-2%201-2%201%200h4c0-2%200-2%201-1%200%202%203%201%203-1s2%200%202%202%200%202%201%201l1-2v2c0%203%203-3%203-7C37%2010%2026%203%2017%208'%20fill='%23d3d3d3'%20fill-rule='evenodd'/%3e%3c/svg%3e"},"images":{"fallback":{"src":"/static/fecf2e899dec54bbe574abf34532a6ae/a7a66/kuper0201.png","srcSet":"/static/fecf2e899dec54bbe574abf34532a6ae/a7a66/kuper0201.png 48w,\n/static/fecf2e899dec54bbe574abf34532a6ae/416a0/kuper0201.png 96w","sizes":"48px"},"sources":[{"srcSet":"/static/fecf2e899dec54bbe574abf34532a6ae/a3542/kuper0201.webp 48w,\n/static/fecf2e899dec54bbe574abf34532a6ae/0f66d/kuper0201.webp 96w","type":"image/webp","sizes":"48px"}]},"width":48,"height":48},"ImageSharp_regular":{"layout":"fixed","placeholder":{"fallback":"data:image/svg+xml,%3csvg%20xmlns='http://www.w3.org/2000/svg'%20width='48'%20height='48'%20viewBox='0%200%2048%2048'%20preserveAspectRatio='none'%3e%3cpath%20d='M17%208c-4%203-6%206-6%2012l1%205%201%202c1%202%201%202%202%200%202-3%203-4%203-1h3c1-2%201-2%201%200h4c0-2%200-2%201-1%200%202%203%201%203-1s2%200%202%202%200%202%201%201l1-2v2c0%203%203-3%203-7C37%2010%2026%203%2017%208'%20fill='%23d3d3d3'%20fill-rule='evenodd'/%3e%3c/svg%3e"},"images":{"fallback":{"src":"/static/fecf2e899dec54bbe574abf34532a6ae/46e60/kuper0201.png","srcSet":"/static/fecf2e899dec54bbe574abf34532a6ae/46e60/kuper0201.png 150w,\n/static/fecf2e899dec54bbe574abf34532a6ae/d612b/kuper0201.png 300w","sizes":"150px"},"sources":[{"srcSet":"/static/fecf2e899dec54bbe574abf34532a6ae/ae23d/kuper0201.webp 150w,\n/static/fecf2e899dec54bbe574abf34532a6ae/bd37b/kuper0201.webp 300w","type":"image/webp","sizes":"150px"}]},"width":150,"height":150}}},"thumbnail":{"__typename":"ImageSharp","ImageSharp_vertical":{"layout":"constrained","backgroundColor":"#f8d8c8","images":{"fallback":{"src":"/static/f17c8c5c6d7d8d1a691bffe131523793/144fe/cover.jpg","srcSet":"/static/f17c8c5c6d7d8d1a691bffe131523793/9d7b9/cover.jpg 190w,\n/static/f17c8c5c6d7d8d1a691bffe131523793/144fe/cover.jpg 380w","sizes":"(min-width: 380px) 380px, 100vw"},"sources":[{"srcSet":"/static/f17c8c5c6d7d8d1a691bffe131523793/228d6/cover.webp 190w,\n/static/f17c8c5c6d7d8d1a691bffe131523793/6b99c/cover.webp 380w","type":"image/webp","sizes":"(min-width: 380px) 380px, 100vw"}]},"width":380,"height":290},"ImageSharp_hero":{"layout":"constrained","backgroundColor":"#f8d8c8","images":{"fallback":{"src":"/static/f17c8c5c6d7d8d1a691bffe131523793/5e493/cover.jpg","srcSet":"/static/f17c8c5c6d7d8d1a691bffe131523793/696c0/cover.jpg 800w,\n/static/f17c8c5c6d7d8d1a691bffe131523793/5e493/cover.jpg 1600w","sizes":"(min-width: 1600px) 1600px, 100vw"},"sources":[{"srcSet":"/static/f17c8c5c6d7d8d1a691bffe131523793/c9f06/cover.webp 800w,\n/static/f17c8c5c6d7d8d1a691bffe131523793/f47df/cover.webp 1600w","type":"image/webp","sizes":"(min-width: 1600px) 1600px, 100vw"}]},"width":1600,"height":650}}},{"id":"76ac87eb-b307-55ef-9fbc-2dc2f6d0a01e","title":"피아노 음악 채보 - 1.전처리","slug":"/piano-transcription-preproc/","link":null,"excerpt":"피아노 음악을 모델에 입력하기 위해 전처리하는 방법에 대해 설명합니다.","timeToRead":4,"featured":null,"thumbnailText":null,"date":"2023-09-11","category":{"id":"c3714436-bf14-5db8-be8d-ed18f8e15d93","name":"인공 지능","slug":"/category/ai/","color":"#341EA9","icon":"/static/28f22cadac39f9816eef3609bb95a85e/ai.svg"},"author":{"id":"5e2411c8-feba-5892-8846-7e896da316b3","name":"kuper0201","slug":"/author/kuper0201/","title":"안녕하세요!","description":"컴퓨터 공학을 전공하고 있는 학생입니다.","skills":["Java","C++","Linux","MacOS","Android","IOS"],"social":[{"name":"Github","url":"https://github.com/github"}],"thumbnail":{"__typename":"ImageSharp","ImageSharp_small":{"layout":"fixed","placeholder":{"fallback":"data:image/svg+xml,%3csvg%20xmlns='http://www.w3.org/2000/svg'%20width='48'%20height='48'%20viewBox='0%200%2048%2048'%20preserveAspectRatio='none'%3e%3cpath%20d='M17%208c-4%203-6%206-6%2012l1%205%201%202c1%202%201%202%202%200%202-3%203-4%203-1h3c1-2%201-2%201%200h4c0-2%200-2%201-1%200%202%203%201%203-1s2%200%202%202%200%202%201%201l1-2v2c0%203%203-3%203-7C37%2010%2026%203%2017%208'%20fill='%23d3d3d3'%20fill-rule='evenodd'/%3e%3c/svg%3e"},"images":{"fallback":{"src":"/static/fecf2e899dec54bbe574abf34532a6ae/a7a66/kuper0201.png","srcSet":"/static/fecf2e899dec54bbe574abf34532a6ae/a7a66/kuper0201.png 48w,\n/static/fecf2e899dec54bbe574abf34532a6ae/416a0/kuper0201.png 96w","sizes":"48px"},"sources":[{"srcSet":"/static/fecf2e899dec54bbe574abf34532a6ae/a3542/kuper0201.webp 48w,\n/static/fecf2e899dec54bbe574abf34532a6ae/0f66d/kuper0201.webp 96w","type":"image/webp","sizes":"48px"}]},"width":48,"height":48},"ImageSharp_regular":{"layout":"fixed","placeholder":{"fallback":"data:image/svg+xml,%3csvg%20xmlns='http://www.w3.org/2000/svg'%20width='48'%20height='48'%20viewBox='0%200%2048%2048'%20preserveAspectRatio='none'%3e%3cpath%20d='M17%208c-4%203-6%206-6%2012l1%205%201%202c1%202%201%202%202%200%202-3%203-4%203-1h3c1-2%201-2%201%200h4c0-2%200-2%201-1%200%202%203%201%203-1s2%200%202%202%200%202%201%201l1-2v2c0%203%203-3%203-7C37%2010%2026%203%2017%208'%20fill='%23d3d3d3'%20fill-rule='evenodd'/%3e%3c/svg%3e"},"images":{"fallback":{"src":"/static/fecf2e899dec54bbe574abf34532a6ae/46e60/kuper0201.png","srcSet":"/static/fecf2e899dec54bbe574abf34532a6ae/46e60/kuper0201.png 150w,\n/static/fecf2e899dec54bbe574abf34532a6ae/d612b/kuper0201.png 300w","sizes":"150px"},"sources":[{"srcSet":"/static/fecf2e899dec54bbe574abf34532a6ae/ae23d/kuper0201.webp 150w,\n/static/fecf2e899dec54bbe574abf34532a6ae/bd37b/kuper0201.webp 300w","type":"image/webp","sizes":"150px"}]},"width":150,"height":150}}},"thumbnail":{"__typename":"ImageSharp","ImageSharp_vertical":{"layout":"constrained","backgroundColor":"#f8d8c8","images":{"fallback":{"src":"/static/f17c8c5c6d7d8d1a691bffe131523793/144fe/cover.jpg","srcSet":"/static/f17c8c5c6d7d8d1a691bffe131523793/9d7b9/cover.jpg 190w,\n/static/f17c8c5c6d7d8d1a691bffe131523793/144fe/cover.jpg 380w","sizes":"(min-width: 380px) 380px, 100vw"},"sources":[{"srcSet":"/static/f17c8c5c6d7d8d1a691bffe131523793/228d6/cover.webp 190w,\n/static/f17c8c5c6d7d8d1a691bffe131523793/6b99c/cover.webp 380w","type":"image/webp","sizes":"(min-width: 380px) 380px, 100vw"}]},"width":380,"height":290},"ImageSharp_hero":{"layout":"constrained","backgroundColor":"#f8d8c8","images":{"fallback":{"src":"/static/f17c8c5c6d7d8d1a691bffe131523793/5e493/cover.jpg","srcSet":"/static/f17c8c5c6d7d8d1a691bffe131523793/696c0/cover.jpg 800w,\n/static/f17c8c5c6d7d8d1a691bffe131523793/5e493/cover.jpg 1600w","sizes":"(min-width: 1600px) 1600px, 100vw"},"sources":[{"srcSet":"/static/f17c8c5c6d7d8d1a691bffe131523793/c9f06/cover.webp 800w,\n/static/f17c8c5c6d7d8d1a691bffe131523793/f47df/cover.webp 1600w","type":"image/webp","sizes":"(min-width: 1600px) 1600px, 100vw"}]},"width":1600,"height":650}}},{"id":"30901cc4-6267-58a7-8dc1-b193e4d8e657","title":"AI 자기소개 챗봇 만들기 - 3. Django 배포","slug":"/ai-chatbot-deploy/","link":null,"excerpt":"구축한 챗봇 파이프라인을 웹 앱으로 배포하는 방법을 설명합니다.","timeToRead":1,"featured":null,"thumbnailText":null,"date":"2022-03-02","category":{"id":"c3714436-bf14-5db8-be8d-ed18f8e15d93","name":"인공 지능","slug":"/category/ai/","color":"#341EA9","icon":"/static/28f22cadac39f9816eef3609bb95a85e/ai.svg"},"author":{"id":"5e2411c8-feba-5892-8846-7e896da316b3","name":"kuper0201","slug":"/author/kuper0201/","title":"안녕하세요!","description":"컴퓨터 공학을 전공하고 있는 학생입니다.","skills":["Java","C++","Linux","MacOS","Android","IOS"],"social":[{"name":"Github","url":"https://github.com/github"}],"thumbnail":{"__typename":"ImageSharp","ImageSharp_small":{"layout":"fixed","placeholder":{"fallback":"data:image/svg+xml,%3csvg%20xmlns='http://www.w3.org/2000/svg'%20width='48'%20height='48'%20viewBox='0%200%2048%2048'%20preserveAspectRatio='none'%3e%3cpath%20d='M17%208c-4%203-6%206-6%2012l1%205%201%202c1%202%201%202%202%200%202-3%203-4%203-1h3c1-2%201-2%201%200h4c0-2%200-2%201-1%200%202%203%201%203-1s2%200%202%202%200%202%201%201l1-2v2c0%203%203-3%203-7C37%2010%2026%203%2017%208'%20fill='%23d3d3d3'%20fill-rule='evenodd'/%3e%3c/svg%3e"},"images":{"fallback":{"src":"/static/fecf2e899dec54bbe574abf34532a6ae/a7a66/kuper0201.png","srcSet":"/static/fecf2e899dec54bbe574abf34532a6ae/a7a66/kuper0201.png 48w,\n/static/fecf2e899dec54bbe574abf34532a6ae/416a0/kuper0201.png 96w","sizes":"48px"},"sources":[{"srcSet":"/static/fecf2e899dec54bbe574abf34532a6ae/a3542/kuper0201.webp 48w,\n/static/fecf2e899dec54bbe574abf34532a6ae/0f66d/kuper0201.webp 96w","type":"image/webp","sizes":"48px"}]},"width":48,"height":48},"ImageSharp_regular":{"layout":"fixed","placeholder":{"fallback":"data:image/svg+xml,%3csvg%20xmlns='http://www.w3.org/2000/svg'%20width='48'%20height='48'%20viewBox='0%200%2048%2048'%20preserveAspectRatio='none'%3e%3cpath%20d='M17%208c-4%203-6%206-6%2012l1%205%201%202c1%202%201%202%202%200%202-3%203-4%203-1h3c1-2%201-2%201%200h4c0-2%200-2%201-1%200%202%203%201%203-1s2%200%202%202%200%202%201%201l1-2v2c0%203%203-3%203-7C37%2010%2026%203%2017%208'%20fill='%23d3d3d3'%20fill-rule='evenodd'/%3e%3c/svg%3e"},"images":{"fallback":{"src":"/static/fecf2e899dec54bbe574abf34532a6ae/46e60/kuper0201.png","srcSet":"/static/fecf2e899dec54bbe574abf34532a6ae/46e60/kuper0201.png 150w,\n/static/fecf2e899dec54bbe574abf34532a6ae/d612b/kuper0201.png 300w","sizes":"150px"},"sources":[{"srcSet":"/static/fecf2e899dec54bbe574abf34532a6ae/ae23d/kuper0201.webp 150w,\n/static/fecf2e899dec54bbe574abf34532a6ae/bd37b/kuper0201.webp 300w","type":"image/webp","sizes":"150px"}]},"width":150,"height":150}}},"thumbnail":{"__typename":"ImageSharp","ImageSharp_vertical":{"layout":"constrained","backgroundColor":"#080808","images":{"fallback":{"src":"/static/699a9e06c360d5b143e6c7125dead195/144fe/cover.jpg","srcSet":"/static/699a9e06c360d5b143e6c7125dead195/9d7b9/cover.jpg 190w,\n/static/699a9e06c360d5b143e6c7125dead195/144fe/cover.jpg 380w","sizes":"(min-width: 380px) 380px, 100vw"},"sources":[{"srcSet":"/static/699a9e06c360d5b143e6c7125dead195/228d6/cover.webp 190w,\n/static/699a9e06c360d5b143e6c7125dead195/6b99c/cover.webp 380w","type":"image/webp","sizes":"(min-width: 380px) 380px, 100vw"}]},"width":380,"height":290},"ImageSharp_hero":{"layout":"constrained","backgroundColor":"#080808","images":{"fallback":{"src":"/static/699a9e06c360d5b143e6c7125dead195/5e493/cover.jpg","srcSet":"/static/699a9e06c360d5b143e6c7125dead195/696c0/cover.jpg 800w,\n/static/699a9e06c360d5b143e6c7125dead195/5e493/cover.jpg 1600w","sizes":"(min-width: 1600px) 1600px, 100vw"},"sources":[{"srcSet":"/static/699a9e06c360d5b143e6c7125dead195/c9f06/cover.webp 800w,\n/static/699a9e06c360d5b143e6c7125dead195/f47df/cover.webp 1600w","type":"image/webp","sizes":"(min-width: 1600px) 1600px, 100vw"}]},"width":1600,"height":650}}},{"id":"2f5fa9ea-645f-5073-8c80-89e5a572b8a9","title":"AI 자기소개 챗봇 만들기 - 2. 모델 구현","slug":"/ai-chatbot-model/","link":null,"excerpt":"챗봇을 위한 모델을 선정하고 구현하는 방법을 설명합니다.","timeToRead":2,"featured":null,"thumbnailText":null,"date":"2022-03-02","category":{"id":"c3714436-bf14-5db8-be8d-ed18f8e15d93","name":"인공 지능","slug":"/category/ai/","color":"#341EA9","icon":"/static/28f22cadac39f9816eef3609bb95a85e/ai.svg"},"author":{"id":"5e2411c8-feba-5892-8846-7e896da316b3","name":"kuper0201","slug":"/author/kuper0201/","title":"안녕하세요!","description":"컴퓨터 공학을 전공하고 있는 학생입니다.","skills":["Java","C++","Linux","MacOS","Android","IOS"],"social":[{"name":"Github","url":"https://github.com/github"}],"thumbnail":{"__typename":"ImageSharp","ImageSharp_small":{"layout":"fixed","placeholder":{"fallback":"data:image/svg+xml,%3csvg%20xmlns='http://www.w3.org/2000/svg'%20width='48'%20height='48'%20viewBox='0%200%2048%2048'%20preserveAspectRatio='none'%3e%3cpath%20d='M17%208c-4%203-6%206-6%2012l1%205%201%202c1%202%201%202%202%200%202-3%203-4%203-1h3c1-2%201-2%201%200h4c0-2%200-2%201-1%200%202%203%201%203-1s2%200%202%202%200%202%201%201l1-2v2c0%203%203-3%203-7C37%2010%2026%203%2017%208'%20fill='%23d3d3d3'%20fill-rule='evenodd'/%3e%3c/svg%3e"},"images":{"fallback":{"src":"/static/fecf2e899dec54bbe574abf34532a6ae/a7a66/kuper0201.png","srcSet":"/static/fecf2e899dec54bbe574abf34532a6ae/a7a66/kuper0201.png 48w,\n/static/fecf2e899dec54bbe574abf34532a6ae/416a0/kuper0201.png 96w","sizes":"48px"},"sources":[{"srcSet":"/static/fecf2e899dec54bbe574abf34532a6ae/a3542/kuper0201.webp 48w,\n/static/fecf2e899dec54bbe574abf34532a6ae/0f66d/kuper0201.webp 96w","type":"image/webp","sizes":"48px"}]},"width":48,"height":48},"ImageSharp_regular":{"layout":"fixed","placeholder":{"fallback":"data:image/svg+xml,%3csvg%20xmlns='http://www.w3.org/2000/svg'%20width='48'%20height='48'%20viewBox='0%200%2048%2048'%20preserveAspectRatio='none'%3e%3cpath%20d='M17%208c-4%203-6%206-6%2012l1%205%201%202c1%202%201%202%202%200%202-3%203-4%203-1h3c1-2%201-2%201%200h4c0-2%200-2%201-1%200%202%203%201%203-1s2%200%202%202%200%202%201%201l1-2v2c0%203%203-3%203-7C37%2010%2026%203%2017%208'%20fill='%23d3d3d3'%20fill-rule='evenodd'/%3e%3c/svg%3e"},"images":{"fallback":{"src":"/static/fecf2e899dec54bbe574abf34532a6ae/46e60/kuper0201.png","srcSet":"/static/fecf2e899dec54bbe574abf34532a6ae/46e60/kuper0201.png 150w,\n/static/fecf2e899dec54bbe574abf34532a6ae/d612b/kuper0201.png 300w","sizes":"150px"},"sources":[{"srcSet":"/static/fecf2e899dec54bbe574abf34532a6ae/ae23d/kuper0201.webp 150w,\n/static/fecf2e899dec54bbe574abf34532a6ae/bd37b/kuper0201.webp 300w","type":"image/webp","sizes":"150px"}]},"width":150,"height":150}}},"thumbnail":{"__typename":"ImageSharp","ImageSharp_vertical":{"layout":"constrained","backgroundColor":"#080808","images":{"fallback":{"src":"/static/699a9e06c360d5b143e6c7125dead195/144fe/cover.jpg","srcSet":"/static/699a9e06c360d5b143e6c7125dead195/9d7b9/cover.jpg 190w,\n/static/699a9e06c360d5b143e6c7125dead195/144fe/cover.jpg 380w","sizes":"(min-width: 380px) 380px, 100vw"},"sources":[{"srcSet":"/static/699a9e06c360d5b143e6c7125dead195/228d6/cover.webp 190w,\n/static/699a9e06c360d5b143e6c7125dead195/6b99c/cover.webp 380w","type":"image/webp","sizes":"(min-width: 380px) 380px, 100vw"}]},"width":380,"height":290},"ImageSharp_hero":{"layout":"constrained","backgroundColor":"#080808","images":{"fallback":{"src":"/static/699a9e06c360d5b143e6c7125dead195/5e493/cover.jpg","srcSet":"/static/699a9e06c360d5b143e6c7125dead195/696c0/cover.jpg 800w,\n/static/699a9e06c360d5b143e6c7125dead195/5e493/cover.jpg 1600w","sizes":"(min-width: 1600px) 1600px, 100vw"},"sources":[{"srcSet":"/static/699a9e06c360d5b143e6c7125dead195/c9f06/cover.webp 800w,\n/static/699a9e06c360d5b143e6c7125dead195/f47df/cover.webp 1600w","type":"image/webp","sizes":"(min-width: 1600px) 1600px, 100vw"}]},"width":1600,"height":650}}}],"pageInfo":{"pageCount":2,"hasPreviousPage":false,"hasNextPage":true,"currentPage":1},"totalCount":7}},"pageContext":{"slug":"/category/ai/","limit":6,"skip":0,"collectionType":"category","paginatePostsPage":true,"basePath":"/","services":{"algolia":true,"mailchimp":false,"disqus":false,"graphComment":false,"facebookComment":false},"siteUrl":"https://junsu.me","mobileMenu":{"title":"Topics","items":[{"name":"인공 지능","slug":"/category/ai/"},{"name":"알고리즘","slug":"/category/algorithm/"},{"name":"서버 구축","slug":"/category/server/"},{"name":"임베디드","slug":"/category/embedded/"}]},"darkMode":true,"includeExcerpt":true,"includeTimeToRead":true,"includeTableOfContents":true,"imageQuality":75}},"staticQueryHashes":["1992822086","2409295108"]}