{"componentChunkName":"component---packages-blog-gatsby-blog-core-src-templates-collection-category-js","path":"/category/algorithm/page/5/","result":{"data":{"collectionInfo":{"id":"c7ace9fe-24dc-553e-9965-3777c47ebf98","name":"알고리즘","slug":"/category/algorithm/","description":"알고리즘 공부 기록"},"posts":{"nodes":[{"id":"f216759e-c168-5bb8-a4ff-254bf414b211","title":"BOJ 1245 농장 관리","slug":"/boj1245/","link":null,"excerpt":"문제 BOJ 1245 농장 관리 바로 가기 농부 민식이가 관리하는 농장은 N×M 격자로 이루어져 있다. 민…","timeToRead":1,"featured":null,"thumbnailText":null,"date":"2021-03-05","category":{"id":"c7ace9fe-24dc-553e-9965-3777c47ebf98","name":"알고리즘","slug":"/category/algorithm/","color":"#EB6528","icon":"/static/12873adb9b5cd66ab1c15b91c54ccf98/algorithm.svg"},"author":{"id":"5e2411c8-feba-5892-8846-7e896da316b3","name":"kuper0201","slug":"/author/kuper0201/","title":"안녕하세요!","description":"컴퓨터 공학을 전공하고 있는 학생입니다.","skills":["Java","C++","Linux","MacOS","Android","IOS"],"social":[{"name":"Github","url":"https://github.com/github"}],"thumbnail":{"__typename":"ImageSharp","ImageSharp_small":{"layout":"fixed","placeholder":{"fallback":"data:image/svg+xml,%3csvg%20xmlns='http://www.w3.org/2000/svg'%20width='150'%20height='150'%20viewBox='0%200%20150%20150'%20preserveAspectRatio='none'%3e%3cpath%20d='M60%2022c-2%201-2%201%200%201s1%201-2%201c-7%202-13%207-16%2012l-4%207c-4%204-5%208-5%2020%201%2010%201%2012%203%2015l1%203%201-3c0-3%201-3%202%202l3%2010%203%204-1-7%201-6h1c0%206%205%2010%2013%2010%206%200%209-2%2012-9s4-7%207%201c2%205%204%207%2010%208%209%201%2013-2%2014-11%202-6%203-3%203%204l-1%207%203-4%203-6%203-8c5-9%203-23-5-35-5-7-11-13-17-14-5-2-30-3-32-2m31%2042l-5%202-7%202h-3l2-2%202-2h-2c-12%205-14%205-11%202l-4%202c-3%202-3%202-1%202l8%202h11l11-2h5l-1-3c-2-4-2-5-5-3m-36%209l-2%201c-5-2-5%2010-1%2013%202%202%2010%203%2013%201%203-1%205-5%205-10%200-3%200-3-3-5H55m36%201c3%203%203%203%202%205-2%203-5%204-8%202v-7h-3c-4%202-2%2011%202%2014l7%201c7%200%2010-3%2010-9s-1-7-7-8h-5l2%202m-32%2048c-8%201-9%204-2%2011l4%203%202-3%201-8v-3h-5'%20fill='%23d3d3d3'%20fill-rule='evenodd'/%3e%3c/svg%3e"},"images":{"fallback":{"src":"/static/fecf2e899dec54bbe574abf34532a6ae/a7a66/kuper0201.png","srcSet":"/static/fecf2e899dec54bbe574abf34532a6ae/a7a66/kuper0201.png 48w,\n/static/fecf2e899dec54bbe574abf34532a6ae/416a0/kuper0201.png 96w","sizes":"48px"},"sources":[{"srcSet":"/static/fecf2e899dec54bbe574abf34532a6ae/a3542/kuper0201.webp 48w,\n/static/fecf2e899dec54bbe574abf34532a6ae/0f66d/kuper0201.webp 96w","type":"image/webp","sizes":"48px"}]},"width":48,"height":48},"ImageSharp_regular":{"layout":"fixed","placeholder":{"fallback":"data:image/svg+xml,%3csvg%20xmlns='http://www.w3.org/2000/svg'%20width='150'%20height='150'%20viewBox='0%200%20150%20150'%20preserveAspectRatio='none'%3e%3cpath%20d='M60%2022c-2%201-2%201%200%201s1%201-2%201c-7%202-13%207-16%2012l-4%207c-4%204-5%208-5%2020%201%2010%201%2012%203%2015l1%203%201-3c0-3%201-3%202%202l3%2010%203%204-1-7%201-6h1c0%206%205%2010%2013%2010%206%200%209-2%2012-9s4-7%207%201c2%205%204%207%2010%208%209%201%2013-2%2014-11%202-6%203-3%203%204l-1%207%203-4%203-6%203-8c5-9%203-23-5-35-5-7-11-13-17-14-5-2-30-3-32-2m31%2042l-5%202-7%202h-3l2-2%202-2h-2c-12%205-14%205-11%202l-4%202c-3%202-3%202-1%202l8%202h11l11-2h5l-1-3c-2-4-2-5-5-3m-36%209l-2%201c-5-2-5%2010-1%2013%202%202%2010%203%2013%201%203-1%205-5%205-10%200-3%200-3-3-5H55m36%201c3%203%203%203%202%205-2%203-5%204-8%202v-7h-3c-4%202-2%2011%202%2014l7%201c7%200%2010-3%2010-9s-1-7-7-8h-5l2%202m-32%2048c-8%201-9%204-2%2011l4%203%202-3%201-8v-3h-5'%20fill='%23d3d3d3'%20fill-rule='evenodd'/%3e%3c/svg%3e"},"images":{"fallback":{"src":"/static/fecf2e899dec54bbe574abf34532a6ae/46e60/kuper0201.png","srcSet":"/static/fecf2e899dec54bbe574abf34532a6ae/46e60/kuper0201.png 150w,\n/static/fecf2e899dec54bbe574abf34532a6ae/d612b/kuper0201.png 300w","sizes":"150px"},"sources":[{"srcSet":"/static/fecf2e899dec54bbe574abf34532a6ae/ae23d/kuper0201.webp 150w,\n/static/fecf2e899dec54bbe574abf34532a6ae/bd37b/kuper0201.webp 300w","type":"image/webp","sizes":"150px"}]},"width":150,"height":150}}},"thumbnail":{"__typename":"ImageSharp","ImageSharp_vertical":{"layout":"constrained","backgroundColor":"#e8e8e8","images":{"fallback":{"src":"/static/1ae1a39bac2844ea72c7af0c528da5d1/144fe/cover.jpg","srcSet":"/static/1ae1a39bac2844ea72c7af0c528da5d1/9d7b9/cover.jpg 190w,\n/static/1ae1a39bac2844ea72c7af0c528da5d1/144fe/cover.jpg 380w","sizes":"(min-width: 380px) 380px, 100vw"},"sources":[{"srcSet":"/static/1ae1a39bac2844ea72c7af0c528da5d1/228d6/cover.webp 190w,\n/static/1ae1a39bac2844ea72c7af0c528da5d1/6b99c/cover.webp 380w","type":"image/webp","sizes":"(min-width: 380px) 380px, 100vw"}]},"width":380,"height":290},"ImageSharp_hero":{"layout":"constrained","backgroundColor":"#e8e8e8","images":{"fallback":{"src":"/static/1ae1a39bac2844ea72c7af0c528da5d1/5e493/cover.jpg","srcSet":"/static/1ae1a39bac2844ea72c7af0c528da5d1/696c0/cover.jpg 800w,\n/static/1ae1a39bac2844ea72c7af0c528da5d1/5e493/cover.jpg 1600w","sizes":"(min-width: 1600px) 1600px, 100vw"},"sources":[{"srcSet":"/static/1ae1a39bac2844ea72c7af0c528da5d1/c9f06/cover.webp 800w,\n/static/1ae1a39bac2844ea72c7af0c528da5d1/f47df/cover.webp 1600w","type":"image/webp","sizes":"(min-width: 1600px) 1600px, 100vw"}]},"width":1600,"height":650}}},{"id":"32d2514e-8b08-58ea-9593-1cb2d4efa6e7","title":"BOJ 18111 마인크래프트","slug":"/boj18111/","link":null,"excerpt":"문제 BOJ 18111 마인크래프트 바로 가기 팀 레드시프트는 대회 준비를 하다가 지루해져서 샌드박스 게임…","timeToRead":2,"featured":null,"thumbnailText":null,"date":"2021-03-05","category":{"id":"c7ace9fe-24dc-553e-9965-3777c47ebf98","name":"알고리즘","slug":"/category/algorithm/","color":"#EB6528","icon":"/static/12873adb9b5cd66ab1c15b91c54ccf98/algorithm.svg"},"author":{"id":"5e2411c8-feba-5892-8846-7e896da316b3","name":"kuper0201","slug":"/author/kuper0201/","title":"안녕하세요!","description":"컴퓨터 공학을 전공하고 있는 학생입니다.","skills":["Java","C++","Linux","MacOS","Android","IOS"],"social":[{"name":"Github","url":"https://github.com/github"}],"thumbnail":{"__typename":"ImageSharp","ImageSharp_small":{"layout":"fixed","placeholder":{"fallback":"data:image/svg+xml,%3csvg%20xmlns='http://www.w3.org/2000/svg'%20width='150'%20height='150'%20viewBox='0%200%20150%20150'%20preserveAspectRatio='none'%3e%3cpath%20d='M60%2022c-2%201-2%201%200%201s1%201-2%201c-7%202-13%207-16%2012l-4%207c-4%204-5%208-5%2020%201%2010%201%2012%203%2015l1%203%201-3c0-3%201-3%202%202l3%2010%203%204-1-7%201-6h1c0%206%205%2010%2013%2010%206%200%209-2%2012-9s4-7%207%201c2%205%204%207%2010%208%209%201%2013-2%2014-11%202-6%203-3%203%204l-1%207%203-4%203-6%203-8c5-9%203-23-5-35-5-7-11-13-17-14-5-2-30-3-32-2m31%2042l-5%202-7%202h-3l2-2%202-2h-2c-12%205-14%205-11%202l-4%202c-3%202-3%202-1%202l8%202h11l11-2h5l-1-3c-2-4-2-5-5-3m-36%209l-2%201c-5-2-5%2010-1%2013%202%202%2010%203%2013%201%203-1%205-5%205-10%200-3%200-3-3-5H55m36%201c3%203%203%203%202%205-2%203-5%204-8%202v-7h-3c-4%202-2%2011%202%2014l7%201c7%200%2010-3%2010-9s-1-7-7-8h-5l2%202m-32%2048c-8%201-9%204-2%2011l4%203%202-3%201-8v-3h-5'%20fill='%23d3d3d3'%20fill-rule='evenodd'/%3e%3c/svg%3e"},"images":{"fallback":{"src":"/static/fecf2e899dec54bbe574abf34532a6ae/a7a66/kuper0201.png","srcSet":"/static/fecf2e899dec54bbe574abf34532a6ae/a7a66/kuper0201.png 48w,\n/static/fecf2e899dec54bbe574abf34532a6ae/416a0/kuper0201.png 96w","sizes":"48px"},"sources":[{"srcSet":"/static/fecf2e899dec54bbe574abf34532a6ae/a3542/kuper0201.webp 48w,\n/static/fecf2e899dec54bbe574abf34532a6ae/0f66d/kuper0201.webp 96w","type":"image/webp","sizes":"48px"}]},"width":48,"height":48},"ImageSharp_regular":{"layout":"fixed","placeholder":{"fallback":"data:image/svg+xml,%3csvg%20xmlns='http://www.w3.org/2000/svg'%20width='150'%20height='150'%20viewBox='0%200%20150%20150'%20preserveAspectRatio='none'%3e%3cpath%20d='M60%2022c-2%201-2%201%200%201s1%201-2%201c-7%202-13%207-16%2012l-4%207c-4%204-5%208-5%2020%201%2010%201%2012%203%2015l1%203%201-3c0-3%201-3%202%202l3%2010%203%204-1-7%201-6h1c0%206%205%2010%2013%2010%206%200%209-2%2012-9s4-7%207%201c2%205%204%207%2010%208%209%201%2013-2%2014-11%202-6%203-3%203%204l-1%207%203-4%203-6%203-8c5-9%203-23-5-35-5-7-11-13-17-14-5-2-30-3-32-2m31%2042l-5%202-7%202h-3l2-2%202-2h-2c-12%205-14%205-11%202l-4%202c-3%202-3%202-1%202l8%202h11l11-2h5l-1-3c-2-4-2-5-5-3m-36%209l-2%201c-5-2-5%2010-1%2013%202%202%2010%203%2013%201%203-1%205-5%205-10%200-3%200-3-3-5H55m36%201c3%203%203%203%202%205-2%203-5%204-8%202v-7h-3c-4%202-2%2011%202%2014l7%201c7%200%2010-3%2010-9s-1-7-7-8h-5l2%202m-32%2048c-8%201-9%204-2%2011l4%203%202-3%201-8v-3h-5'%20fill='%23d3d3d3'%20fill-rule='evenodd'/%3e%3c/svg%3e"},"images":{"fallback":{"src":"/static/fecf2e899dec54bbe574abf34532a6ae/46e60/kuper0201.png","srcSet":"/static/fecf2e899dec54bbe574abf34532a6ae/46e60/kuper0201.png 150w,\n/static/fecf2e899dec54bbe574abf34532a6ae/d612b/kuper0201.png 300w","sizes":"150px"},"sources":[{"srcSet":"/static/fecf2e899dec54bbe574abf34532a6ae/ae23d/kuper0201.webp 150w,\n/static/fecf2e899dec54bbe574abf34532a6ae/bd37b/kuper0201.webp 300w","type":"image/webp","sizes":"150px"}]},"width":150,"height":150}}},"thumbnail":{"__typename":"ImageSharp","ImageSharp_vertical":{"layout":"constrained","backgroundColor":"#e8e8e8","images":{"fallback":{"src":"/static/1ae1a39bac2844ea72c7af0c528da5d1/144fe/cover.jpg","srcSet":"/static/1ae1a39bac2844ea72c7af0c528da5d1/9d7b9/cover.jpg 190w,\n/static/1ae1a39bac2844ea72c7af0c528da5d1/144fe/cover.jpg 380w","sizes":"(min-width: 380px) 380px, 100vw"},"sources":[{"srcSet":"/static/1ae1a39bac2844ea72c7af0c528da5d1/228d6/cover.webp 190w,\n/static/1ae1a39bac2844ea72c7af0c528da5d1/6b99c/cover.webp 380w","type":"image/webp","sizes":"(min-width: 380px) 380px, 100vw"}]},"width":380,"height":290},"ImageSharp_hero":{"layout":"constrained","backgroundColor":"#e8e8e8","images":{"fallback":{"src":"/static/1ae1a39bac2844ea72c7af0c528da5d1/5e493/cover.jpg","srcSet":"/static/1ae1a39bac2844ea72c7af0c528da5d1/696c0/cover.jpg 800w,\n/static/1ae1a39bac2844ea72c7af0c528da5d1/5e493/cover.jpg 1600w","sizes":"(min-width: 1600px) 1600px, 100vw"},"sources":[{"srcSet":"/static/1ae1a39bac2844ea72c7af0c528da5d1/c9f06/cover.webp 800w,\n/static/1ae1a39bac2844ea72c7af0c528da5d1/f47df/cover.webp 1600w","type":"image/webp","sizes":"(min-width: 1600px) 1600px, 100vw"}]},"width":1600,"height":650}}},{"id":"580b53ee-843c-5fa3-b4ff-efcbd732b6d1","title":"BOJ 18917 수열과 쿼리 38","slug":"/boj18917/","link":null,"excerpt":"문제 BOJ 18917 수열과 쿼리 38 바로 가기 처음에 0이 하나 포함되어있는 배열 A가 있다. 이때,…","timeToRead":1,"featured":null,"thumbnailText":null,"date":"2021-03-05","category":{"id":"c7ace9fe-24dc-553e-9965-3777c47ebf98","name":"알고리즘","slug":"/category/algorithm/","color":"#EB6528","icon":"/static/12873adb9b5cd66ab1c15b91c54ccf98/algorithm.svg"},"author":{"id":"5e2411c8-feba-5892-8846-7e896da316b3","name":"kuper0201","slug":"/author/kuper0201/","title":"안녕하세요!","description":"컴퓨터 공학을 전공하고 있는 학생입니다.","skills":["Java","C++","Linux","MacOS","Android","IOS"],"social":[{"name":"Github","url":"https://github.com/github"}],"thumbnail":{"__typename":"ImageSharp","ImageSharp_small":{"layout":"fixed","placeholder":{"fallback":"data:image/svg+xml,%3csvg%20xmlns='http://www.w3.org/2000/svg'%20width='150'%20height='150'%20viewBox='0%200%20150%20150'%20preserveAspectRatio='none'%3e%3cpath%20d='M60%2022c-2%201-2%201%200%201s1%201-2%201c-7%202-13%207-16%2012l-4%207c-4%204-5%208-5%2020%201%2010%201%2012%203%2015l1%203%201-3c0-3%201-3%202%202l3%2010%203%204-1-7%201-6h1c0%206%205%2010%2013%2010%206%200%209-2%2012-9s4-7%207%201c2%205%204%207%2010%208%209%201%2013-2%2014-11%202-6%203-3%203%204l-1%207%203-4%203-6%203-8c5-9%203-23-5-35-5-7-11-13-17-14-5-2-30-3-32-2m31%2042l-5%202-7%202h-3l2-2%202-2h-2c-12%205-14%205-11%202l-4%202c-3%202-3%202-1%202l8%202h11l11-2h5l-1-3c-2-4-2-5-5-3m-36%209l-2%201c-5-2-5%2010-1%2013%202%202%2010%203%2013%201%203-1%205-5%205-10%200-3%200-3-3-5H55m36%201c3%203%203%203%202%205-2%203-5%204-8%202v-7h-3c-4%202-2%2011%202%2014l7%201c7%200%2010-3%2010-9s-1-7-7-8h-5l2%202m-32%2048c-8%201-9%204-2%2011l4%203%202-3%201-8v-3h-5'%20fill='%23d3d3d3'%20fill-rule='evenodd'/%3e%3c/svg%3e"},"images":{"fallback":{"src":"/static/fecf2e899dec54bbe574abf34532a6ae/a7a66/kuper0201.png","srcSet":"/static/fecf2e899dec54bbe574abf34532a6ae/a7a66/kuper0201.png 48w,\n/static/fecf2e899dec54bbe574abf34532a6ae/416a0/kuper0201.png 96w","sizes":"48px"},"sources":[{"srcSet":"/static/fecf2e899dec54bbe574abf34532a6ae/a3542/kuper0201.webp 48w,\n/static/fecf2e899dec54bbe574abf34532a6ae/0f66d/kuper0201.webp 96w","type":"image/webp","sizes":"48px"}]},"width":48,"height":48},"ImageSharp_regular":{"layout":"fixed","placeholder":{"fallback":"data:image/svg+xml,%3csvg%20xmlns='http://www.w3.org/2000/svg'%20width='150'%20height='150'%20viewBox='0%200%20150%20150'%20preserveAspectRatio='none'%3e%3cpath%20d='M60%2022c-2%201-2%201%200%201s1%201-2%201c-7%202-13%207-16%2012l-4%207c-4%204-5%208-5%2020%201%2010%201%2012%203%2015l1%203%201-3c0-3%201-3%202%202l3%2010%203%204-1-7%201-6h1c0%206%205%2010%2013%2010%206%200%209-2%2012-9s4-7%207%201c2%205%204%207%2010%208%209%201%2013-2%2014-11%202-6%203-3%203%204l-1%207%203-4%203-6%203-8c5-9%203-23-5-35-5-7-11-13-17-14-5-2-30-3-32-2m31%2042l-5%202-7%202h-3l2-2%202-2h-2c-12%205-14%205-11%202l-4%202c-3%202-3%202-1%202l8%202h11l11-2h5l-1-3c-2-4-2-5-5-3m-36%209l-2%201c-5-2-5%2010-1%2013%202%202%2010%203%2013%201%203-1%205-5%205-10%200-3%200-3-3-5H55m36%201c3%203%203%203%202%205-2%203-5%204-8%202v-7h-3c-4%202-2%2011%202%2014l7%201c7%200%2010-3%2010-9s-1-7-7-8h-5l2%202m-32%2048c-8%201-9%204-2%2011l4%203%202-3%201-8v-3h-5'%20fill='%23d3d3d3'%20fill-rule='evenodd'/%3e%3c/svg%3e"},"images":{"fallback":{"src":"/static/fecf2e899dec54bbe574abf34532a6ae/46e60/kuper0201.png","srcSet":"/static/fecf2e899dec54bbe574abf34532a6ae/46e60/kuper0201.png 150w,\n/static/fecf2e899dec54bbe574abf34532a6ae/d612b/kuper0201.png 300w","sizes":"150px"},"sources":[{"srcSet":"/static/fecf2e899dec54bbe574abf34532a6ae/ae23d/kuper0201.webp 150w,\n/static/fecf2e899dec54bbe574abf34532a6ae/bd37b/kuper0201.webp 300w","type":"image/webp","sizes":"150px"}]},"width":150,"height":150}}},"thumbnail":{"__typename":"ImageSharp","ImageSharp_vertical":{"layout":"constrained","backgroundColor":"#e8e8e8","images":{"fallback":{"src":"/static/1ae1a39bac2844ea72c7af0c528da5d1/144fe/cover.jpg","srcSet":"/static/1ae1a39bac2844ea72c7af0c528da5d1/9d7b9/cover.jpg 190w,\n/static/1ae1a39bac2844ea72c7af0c528da5d1/144fe/cover.jpg 380w","sizes":"(min-width: 380px) 380px, 100vw"},"sources":[{"srcSet":"/static/1ae1a39bac2844ea72c7af0c528da5d1/228d6/cover.webp 190w,\n/static/1ae1a39bac2844ea72c7af0c528da5d1/6b99c/cover.webp 380w","type":"image/webp","sizes":"(min-width: 380px) 380px, 100vw"}]},"width":380,"height":290},"ImageSharp_hero":{"layout":"constrained","backgroundColor":"#e8e8e8","images":{"fallback":{"src":"/static/1ae1a39bac2844ea72c7af0c528da5d1/5e493/cover.jpg","srcSet":"/static/1ae1a39bac2844ea72c7af0c528da5d1/696c0/cover.jpg 800w,\n/static/1ae1a39bac2844ea72c7af0c528da5d1/5e493/cover.jpg 1600w","sizes":"(min-width: 1600px) 1600px, 100vw"},"sources":[{"srcSet":"/static/1ae1a39bac2844ea72c7af0c528da5d1/c9f06/cover.webp 800w,\n/static/1ae1a39bac2844ea72c7af0c528da5d1/f47df/cover.webp 1600w","type":"image/webp","sizes":"(min-width: 1600px) 1600px, 100vw"}]},"width":1600,"height":650}}},{"id":"5f45ad77-d78e-5b52-9df6-6d9cbb0b8c9e","title":"BOJ 9012 괄호","slug":"/boj9012/","link":null,"excerpt":"문제 BOJ 9012 괄호 바로 가기 괄호 문자열(Parenthesis String, PS)은 두 개의 괄…","timeToRead":1,"featured":null,"thumbnailText":null,"date":"2021-03-05","category":{"id":"c7ace9fe-24dc-553e-9965-3777c47ebf98","name":"알고리즘","slug":"/category/algorithm/","color":"#EB6528","icon":"/static/12873adb9b5cd66ab1c15b91c54ccf98/algorithm.svg"},"author":{"id":"5e2411c8-feba-5892-8846-7e896da316b3","name":"kuper0201","slug":"/author/kuper0201/","title":"안녕하세요!","description":"컴퓨터 공학을 전공하고 있는 학생입니다.","skills":["Java","C++","Linux","MacOS","Android","IOS"],"social":[{"name":"Github","url":"https://github.com/github"}],"thumbnail":{"__typename":"ImageSharp","ImageSharp_small":{"layout":"fixed","placeholder":{"fallback":"data:image/svg+xml,%3csvg%20xmlns='http://www.w3.org/2000/svg'%20width='150'%20height='150'%20viewBox='0%200%20150%20150'%20preserveAspectRatio='none'%3e%3cpath%20d='M60%2022c-2%201-2%201%200%201s1%201-2%201c-7%202-13%207-16%2012l-4%207c-4%204-5%208-5%2020%201%2010%201%2012%203%2015l1%203%201-3c0-3%201-3%202%202l3%2010%203%204-1-7%201-6h1c0%206%205%2010%2013%2010%206%200%209-2%2012-9s4-7%207%201c2%205%204%207%2010%208%209%201%2013-2%2014-11%202-6%203-3%203%204l-1%207%203-4%203-6%203-8c5-9%203-23-5-35-5-7-11-13-17-14-5-2-30-3-32-2m31%2042l-5%202-7%202h-3l2-2%202-2h-2c-12%205-14%205-11%202l-4%202c-3%202-3%202-1%202l8%202h11l11-2h5l-1-3c-2-4-2-5-5-3m-36%209l-2%201c-5-2-5%2010-1%2013%202%202%2010%203%2013%201%203-1%205-5%205-10%200-3%200-3-3-5H55m36%201c3%203%203%203%202%205-2%203-5%204-8%202v-7h-3c-4%202-2%2011%202%2014l7%201c7%200%2010-3%2010-9s-1-7-7-8h-5l2%202m-32%2048c-8%201-9%204-2%2011l4%203%202-3%201-8v-3h-5'%20fill='%23d3d3d3'%20fill-rule='evenodd'/%3e%3c/svg%3e"},"images":{"fallback":{"src":"/static/fecf2e899dec54bbe574abf34532a6ae/a7a66/kuper0201.png","srcSet":"/static/fecf2e899dec54bbe574abf34532a6ae/a7a66/kuper0201.png 48w,\n/static/fecf2e899dec54bbe574abf34532a6ae/416a0/kuper0201.png 96w","sizes":"48px"},"sources":[{"srcSet":"/static/fecf2e899dec54bbe574abf34532a6ae/a3542/kuper0201.webp 48w,\n/static/fecf2e899dec54bbe574abf34532a6ae/0f66d/kuper0201.webp 96w","type":"image/webp","sizes":"48px"}]},"width":48,"height":48},"ImageSharp_regular":{"layout":"fixed","placeholder":{"fallback":"data:image/svg+xml,%3csvg%20xmlns='http://www.w3.org/2000/svg'%20width='150'%20height='150'%20viewBox='0%200%20150%20150'%20preserveAspectRatio='none'%3e%3cpath%20d='M60%2022c-2%201-2%201%200%201s1%201-2%201c-7%202-13%207-16%2012l-4%207c-4%204-5%208-5%2020%201%2010%201%2012%203%2015l1%203%201-3c0-3%201-3%202%202l3%2010%203%204-1-7%201-6h1c0%206%205%2010%2013%2010%206%200%209-2%2012-9s4-7%207%201c2%205%204%207%2010%208%209%201%2013-2%2014-11%202-6%203-3%203%204l-1%207%203-4%203-6%203-8c5-9%203-23-5-35-5-7-11-13-17-14-5-2-30-3-32-2m31%2042l-5%202-7%202h-3l2-2%202-2h-2c-12%205-14%205-11%202l-4%202c-3%202-3%202-1%202l8%202h11l11-2h5l-1-3c-2-4-2-5-5-3m-36%209l-2%201c-5-2-5%2010-1%2013%202%202%2010%203%2013%201%203-1%205-5%205-10%200-3%200-3-3-5H55m36%201c3%203%203%203%202%205-2%203-5%204-8%202v-7h-3c-4%202-2%2011%202%2014l7%201c7%200%2010-3%2010-9s-1-7-7-8h-5l2%202m-32%2048c-8%201-9%204-2%2011l4%203%202-3%201-8v-3h-5'%20fill='%23d3d3d3'%20fill-rule='evenodd'/%3e%3c/svg%3e"},"images":{"fallback":{"src":"/static/fecf2e899dec54bbe574abf34532a6ae/46e60/kuper0201.png","srcSet":"/static/fecf2e899dec54bbe574abf34532a6ae/46e60/kuper0201.png 150w,\n/static/fecf2e899dec54bbe574abf34532a6ae/d612b/kuper0201.png 300w","sizes":"150px"},"sources":[{"srcSet":"/static/fecf2e899dec54bbe574abf34532a6ae/ae23d/kuper0201.webp 150w,\n/static/fecf2e899dec54bbe574abf34532a6ae/bd37b/kuper0201.webp 300w","type":"image/webp","sizes":"150px"}]},"width":150,"height":150}}},"thumbnail":{"__typename":"ImageSharp","ImageSharp_vertical":{"layout":"constrained","backgroundColor":"#e8e8e8","images":{"fallback":{"src":"/static/1ae1a39bac2844ea72c7af0c528da5d1/144fe/cover.jpg","srcSet":"/static/1ae1a39bac2844ea72c7af0c528da5d1/9d7b9/cover.jpg 190w,\n/static/1ae1a39bac2844ea72c7af0c528da5d1/144fe/cover.jpg 380w","sizes":"(min-width: 380px) 380px, 100vw"},"sources":[{"srcSet":"/static/1ae1a39bac2844ea72c7af0c528da5d1/228d6/cover.webp 190w,\n/static/1ae1a39bac2844ea72c7af0c528da5d1/6b99c/cover.webp 380w","type":"image/webp","sizes":"(min-width: 380px) 380px, 100vw"}]},"width":380,"height":290},"ImageSharp_hero":{"layout":"constrained","backgroundColor":"#e8e8e8","images":{"fallback":{"src":"/static/1ae1a39bac2844ea72c7af0c528da5d1/5e493/cover.jpg","srcSet":"/static/1ae1a39bac2844ea72c7af0c528da5d1/696c0/cover.jpg 800w,\n/static/1ae1a39bac2844ea72c7af0c528da5d1/5e493/cover.jpg 1600w","sizes":"(min-width: 1600px) 1600px, 100vw"},"sources":[{"srcSet":"/static/1ae1a39bac2844ea72c7af0c528da5d1/c9f06/cover.webp 800w,\n/static/1ae1a39bac2844ea72c7af0c528da5d1/f47df/cover.webp 1600w","type":"image/webp","sizes":"(min-width: 1600px) 1600px, 100vw"}]},"width":1600,"height":650}}}],"pageInfo":{"pageCount":5,"hasPreviousPage":true,"hasNextPage":false,"currentPage":5},"totalCount":28}},"pageContext":{"slug":"/category/algorithm/","limit":6,"skip":24,"collectionType":"category","paginatePostsPage":true,"basePath":"/","services":{"algolia":true,"mailchimp":false,"disqus":false,"graphComment":false,"facebookComment":false},"siteUrl":"https://jeong-jun.su","mobileMenu":{"title":"Topics","items":[{"name":"알고리즘","slug":"/category/algorithm/"},{"name":"전자 공학","slug":"/category/electronics/"},{"name":"인공 지능","slug":"/category/ai/"},{"name":"서버 구축","slug":"/category/servers/"}]},"darkMode":true,"includeExcerpt":true,"includeTimeToRead":true,"includeTableOfContents":true,"imageQuality":75}},"staticQueryHashes":["1992822086","2409295108"]}